type,date,lot,price,sl,tp,sl size,tp size
sell,2019.01.02 14:28:37,0.88,1.14077,1.64077,1.11953,0.5,0.02124
stop loss triggered,2019.01.02 15:15:40,0.88,1.13978,,,1.13978,1.13978
sell,2019.01.02 15:15:40,0.89,1.14077,1.64077,1.11953,0.5,0.02124
sell modified,2019.01.02 15:41:39,0.89,1.13788,,,1.13788,1.13788
stop loss triggered,2019.01.02 16:21:43,0.89,1.13688,,,1.13688,1.13688
sell,2019.01.02 16:21:43,0.9,1.13824,1.63824,1.117,0.5,0.02124
sell modified,2019.01.02 17:21:38,0.9,1.13585,,,1.13585,1.13585
stop loss triggered,2019.01.02 17:40:59,0.9,1.13474,,,1.13474,1.13474
buy,2019.01.07 03:44:16,0.91,1.14166,0.64166,1.1629,0.5,0.02124
stop loss triggered,2019.01.07 10:20:34,0.91,1.14322,,,1.14322,1.14322
buy,2019.01.07 10:20:34,0.93,1.14166,0.64166,1.1629,0.5,0.02124
buy modified,2019.01.07 11:08:35,0.93,1.14404,,,1.14404,1.14404
stop loss triggered,2019.01.07 15:48:35,0.93,1.14507,,,1.14507,1.14507
buy,2019.01.07 15:48:35,0.94,1.14166,0.64166,1.1629,0.5,0.02124
buy modified;2019.01.07 16:07:38;0.94;1.14588;;;1.14588;1.14588
stop loss triggered;2019.01.07 20:41:34;0.94;1.14744;;;1.14744;1.14744
buy;2019.01.07 20:41:34;0.96;1.14557;0.64557;1.16681;0.5;0.02124
buy modified;2019.01.07 21:22:41;0.96;1.14808;;;1.14808;1.14808
stop loss triggered;2019.01.09 17:43:41;0.96;1.15213;;;1.15213;1.15213
buy;2019.01.09 18:35:37;1;1.15232;0.65232;1.17356;0.5;0.02124
stop loss triggered;2019.01.09 21:01:27;1;1.1546;;;1.1546;1.1546
sell;2019.01.14 00:00:30;1.04;1.14792;1.64792;1.12668;0.5;0.02124
stop loss triggered;2019.01.14 09:24:36;1.04;1.14628;;;1.14628;1.14628
sell;2019.01.14 09:24:36;1.06;1.14792;1.64792;1.12668;0.5;0.02124
stop loss triggered;2019.01.14 12:45:16;1.06;1.14603;;;1.14603;1.14603
sell;2019.01.14 12:45:16;1.08;1.14792;1.64792;1.12668;0.5;0.02124
stop loss triggered;2019.01.14 18:10:29;1.08;1.14685;;;1.14685;1.14685
sell;2019.01.14 18:10:29;1.1;1.14792;1.64792;1.12668;0.5;0.02124
stop loss triggered;2019.01.14 22:58:24;1.1;1.14688;;;1.14688;1.14688
sell;2019.01.14 22:58:24;1.11;1.14792;1.64792;1.12668;0.5;0.02124
stop loss triggered;2019.01.15 10:39:40;1.11;1.14619;;;1.14619;1.14619
sell;2019.01.15 14:08:40;1.14;1.14286;1.64286;1.12162;0.5;0.02124
stop loss triggered;2019.01.15 18:06:31;1.14;1.14163;;;1.14163;1.14163
sell;2019.01.15 18:06:31;1.16;1.14286;1.64286;1.12162;0.5;0.02124
sell modified;2019.01.15 18:25:38;1.16;1.13982;;;1.13982;1.13982
stop loss triggered;2019.01.15 18:48:00;1.16;1.13885;;;1.13885;1.13885
sell;2019.01.15 19:23:04;1.18;1.13976;1.63976;1.11852;0.5;0.02124
stop loss triggered;2019.01.16 14:12:13;1.18;1.13846;;;1.13846;1.13846
sell;2019.01.16 14:12:13;1.2;1.1399;1.6399;1.11866;0.5;0.02124
stop loss triggered;2019.01.17 07:50:09;1.2;1.13857;;;1.13857;1.13857
sell;2019.01.17 07:50:09;1.23;1.14028;1.64028;1.11904;0.5;0.02124
sell modified;2019.01.17 09:11:30;1.23;1.13789;;;1.13789;1.13789
stop loss triggered;2019.01.18 17:35:59;1.23;1.13666;;;1.13666;1.13666
sell;2019.01.21 00:00:00;1.25;1.13645;1.63645;1.11521;0.5;0.02124
stop loss triggered;2019.01.22 08:32:04;1.25;1.13547;;;1.13547;1.13547
buy;2019.01.23 18:20:29;1.26;1.13866;0.63866;1.1599;0.5;0.02124
sell;2019.01.24 10:15:25;1.27;1.13667;1.63667;1.11543;0.5;0.02124
stop loss triggered;2019.01.24 11:40:39;1.27;1.13491;;;1.13491;1.13491
sell;2019.01.24 11:40:39;1.27;1.13667;1.63667;1.11543;0.5;0.02124
sell modified;2019.01.24 12:30:02;1.27;1.13414;;;1.13414;1.13414
stop loss triggered;2019.01.24 15:33:30;1.27;1.13277;;;1.13277;1.13277
sell;2019.01.24 15:33:30;1.27;1.13459;1.63459;1.11335;0.5;0.02124
stop loss triggered;2019.01.24 22:31:32;1.27;1.13077;;;1.13077;1.13077
stop loss triggered;2019.01.25 17:31:40;1.26;1.14007;;;1.14007;1.14007
buy;2019.01.28 00:00:00;1.38;1.13854;0.63854;1.15978;0.5;0.02124
buy modified;2019.01.28 01:01:35;1.38;1.14093;;;1.14093;1.14093
stop loss triggered;2019.01.28 05:51:01;1.38;1.14203;;;1.14203;1.14203
buy;2019.01.28 05:51:01;1.4;1.13854;0.63854;1.15978;0.5;0.02124
buy modified;2019.01.28 16:52:15;1.4;1.14241;;;1.14241;1.14241
buy;2019.01.28 20:45:00;1.4;1.14245;0.64245;1.16369;0.5;0.02124
stop loss triggered;2019.01.29 08:55:34;1.4;1.14345;;;1.14345;1.14345
buy;2019.01.30 21:03:40;1.41;1.14639;0.64639;1.16763;0.5;0.02124
stop loss triggered;2019.01.30 21:27:59;1.41;1.14746;;;1.14746;1.14746
buy;2019.01.30 21:27:59;1.43;1.14639;0.64639;1.16763;0.5;0.02124
buy modified;2019.01.30 21:47:40;1.43;1.14984;;;1.14984;1.14984
stop loss triggered;2019.01.31 09:36:59;1.43;1.1509;;;1.1509;1.1509
sell;2019.02.04 16:51:29;1.45;1.14303;1.64303;1.12179;0.5;0.02124
stop loss triggered;2019.02.05 11:05:37;1.45;1.14179;;;1.14179;1.14179
sell;2019.02.05 18:13:29;1.48;1.1416;1.6416;1.12036;0.5;0.02124
stop loss triggered;2019.02.06 00:00:00;1.48;1.14062;;;1.14062;1.14062
sell;2019.02.06 08:16:42;1.5;1.13976;1.63976;1.11852;0.5;0.02124
stop loss triggered;2019.02.06 14:17:38;1.5;1.1388;;;1.1388;1.1388
sell;2019.02.06 14:17:38;1.52;1.13976;1.63976;1.11852;0.5;0.02124
sell modified;2019.02.06 20:01:23;1.52;1.13736;;;1.13736;1.13736
sell;2019.02.07 05:00:00;1.52;1.13818;1.63818;1.11694;0.5;0.02124
sell modified;2019.02.07 09:03:24;1.52;1.13577;;;1.13577;1.13577
stop loss triggered;2019.02.07 12:07:03;1.52;1.1346;;;1.1346;1.1346
sell;2019.02.07 12:07:03;1.55;1.1361;1.6361;1.11486;0.5;0.02124
sell modified;2019.02.07 13:30:34;1.55;1.13332;;;1.13332;1.13332
stop loss triggered;2019.02.11 00:33:25;1.55;1.13208;;;1.13208;1.13208
sell;2019.02.11 00:34:34;1.58;1.13179;1.63179;1.11055;0.5;0.02124
stop loss triggered;2019.02.11 12:14:31;1.58;1.13039;;;1.13039;1.13039
sell;2019.02.11 12:14:31;1.61;1.13179;1.63179;1.11055;0.5;0.02124
stop loss triggered;2019.02.11 14:44:36;1.61;1.13083;;;1.13083;1.13083
sell;2019.02.11 14:44:36;1.63;1.13179;1.63179;1.11055;0.5;0.02124
sell modified;2019.02.11 16:19:20;1.63;1.12939;;;1.12939;1.12939
stop loss triggered;2019.02.11 18:11:40;1.63;1.12795;;;1.12795;1.12795
sell;2019.02.11 18:15:14;1.67;1.12788;1.62788;1.10664;0.5;0.02124
stop loss triggered;2019.02.12 10:30:59;1.67;1.12684;;;1.12684;1.12684
sell;2019.02.12 10:39:41;1.69;1.1275;1.6275;1.10626;0.5;0.02124
buy;2019.02.13 00:00:00;1.68;1.1315;0.6315;1.15274;0.5;0.02124
buy modified;2019.02.13 05:25:24;1.68;1.1339;;;1.1339;1.1339
stop loss triggered;2019.02.14 00:15:36;1.69;1.12647;;;1.12647;1.12647
stop loss triggered;2019.02.19 19:50:29;1.68;1.13512;;;1.13512;1.13512
buy;2019.02.20 00:03:32;1.72;1.1338;0.6338;1.15504;0.5;0.02124
stop loss triggered;2019.02.20 03:03:36;1.72;1.13482;;;1.13482;1.13482
buy;2019.02.20 03:03:36;1.74;1.1338;0.6338;1.15504;0.5;0.02124
stop loss triggered;2019.02.20 10:22:12;1.74;1.1348;;;1.1348;1.1348
buy;2019.02.20 10:22:12;1.76;1.1338;0.6338;1.15504;0.5;0.02124
stop loss triggered;2019.02.20 18:12:41;1.76;1.13541;;;1.13541;1.13541
buy;2019.02.20 18:12:41;1.8;1.1338;0.6338;1.15504;0.5;0.02124
buy modified;2019.02.20 18:35:34;1.8;1.1362;;;1.1362;1.1362
sell;2019.02.21 08:01:30;1.8;1.13452;1.63452;1.11328;0.5;0.02124
sell modified;2019.02.21 09:13:40;1.8;1.13213;;;1.13213;1.13213
stop loss triggered;2019.02.26 18:53:29;1.8;1.13739;;;1.13739;1.13739
buy;2019.02.26 21:42:30;1.79;1.13888;0.63888;1.16012;0.5;0.02124
stop loss triggered;2019.02.27 13:27:37;1.79;1.13986;;;1.13986;1.13986
buy;2019.02.27 13:27:37;1.79;1.13853;0.63853;1.15977;0.5;0.02124
stop loss triggered;2019.02.28 15:23:20;1.79;1.1408;;;1.1408;1.1408
buy;2019.02.28 15:23:20;1.79;1.13892;0.63892;1.16016;0.5;0.02124
stop loss triggered;2019.03.01 17:02:15;1.79;1.1402;;;1.1402;1.1402
stop loss triggered;2019.03.05 17:07:37;1.8;1.13117;;;1.13117;1.13117
sell;2019.03.05 17:18:42;1.93;1.13124;1.63124;1.11;0.5;0.02124
sell;2019.03.06 15:32:02;1.93;1.12953;1.62953;1.10829;0.5;0.02124
buy;2019.03.07 01:46:23;1.93;1.12986;0.62986;1.1511;0.5;0.02124
stop loss triggered;2019.03.07 14:46:02;1.93;1.12848;;;1.12848;1.12848
sell;2019.03.07 14:46:27;1.94;1.12963;1.62963;1.10839;0.5;0.02124
stop loss triggered;2019.03.08 08:33:30;1.94;1.12049;;;1.12049;1.12049
stop loss triggered;2019.03.13 16:35:59;1.93;1.13086;;;1.13086;1.13086
buy;2019.03.13 16:35:59;2.19;1.12975;0.62975;1.15099;0.5;0.02124
buy modified;2019.03.13 20:55:36;2.19;1.13214;;;1.13214;1.13214
stop loss triggered;2019.03.14 10:17:04;2.19;1.13311;;;1.13311;1.13311
buy;2019.03.14 10:17:04;2.22;1.13042;0.63042;1.15166;0.5;0.02124
stop loss triggered;2019.03.15 05:46:36;2.22;1.13194;;;1.13194;1.13194
buy;2019.03.18 00:00:00;2.26;1.1319;0.6319;1.15314;0.5;0.02124
buy modified;2019.03.18 08:53:32;2.26;1.13429;;;1.13429;1.13429
stop loss triggered;2019.03.18 13:44:41;2.26;1.13533;;;1.13533;1.13533
buy;2019.03.18 13:44:41;2.28;1.1319;0.6319;1.15314;0.5;0.02124
buy modified;2019.03.18 14:03:25;2.28;1.13568;;;1.13568;1.13568
stop loss triggered;2019.03.20 20:00:46;2.28;1.13842;;;1.13842;1.13842
buy;2019.03.20 20:00:46;2.35;1.13752;0.63752;1.15876;0.5;0.02124
buy modified;2019.03.20 20:20:20;2.35;1.14151;;;1.14151;1.14151
order canceled;2019.03.20 20:32:29;2.35;1.14151;;;1.14151;1.14151
buy;2019.03.21 00:00:00;2.34;1.13909;0.63909;1.16033;0.5;0.02124
order canceled;2019.03.21 00:00:26;2.34;1.13909;;;1.13909;1.13909
order canceled;2019.03.21 00:00:27;2.34;1.13909;;;1.13909;1.13909
order canceled;2019.03.21 00:00:28;2.34;1.13909;;;1.13909;1.13909
sell;2019.03.22 10:47:41;2.37;1.12912;1.62912;1.10788;0.5;0.02124
stop loss triggered;2019.03.22 16:52:28;2.37;1.12815;;;1.12815;1.12815
sell;2019.03.22 16:52:28;2.41;1.12912;1.62912;1.10788;0.5;0.02124
stop loss triggered;2019.03.26 20:47:02;2.41;1.12812;;;1.12812;1.12812
sell;2019.03.27 00:00:00;2.44;1.12842;1.62842;1.10718;0.5;0.02124
sell modified;2019.03.27 03:19:33;2.44;1.12602;;;1.12602;1.12602
stop loss triggered;2019.03.27 16:47:20;2.44;1.12494;;;1.12494;1.12494
sell;2019.03.27 16:47:20;2.48;1.12589;1.62589;1.10465;0.5;0.02124
stop loss triggered;2019.03.27 23:06:07;2.48;1.12485;;;1.12485;1.12485
sell;2019.03.27 23:06:07;2.52;1.12589;1.62589;1.10465;0.5;0.02124
stop loss triggered;2019.03.28 10:34:25;2.52;1.12425;;;1.12425;1.12425
sell;2019.03.28 10:34:25;2.57;1.12575;1.62575;1.10451;0.5;0.02124
stop loss triggered;2019.03.28 16:01:40;2.57;1.12283;;;1.12283;1.12283
sell;2019.03.28 16:04:30;2.68;1.12367;1.62367;1.10243;0.5;0.02124
stop loss triggered;2019.03.28 17:42:28;2.68;1.12268;;;1.12268;1.12268
sell;2019.03.28 18:09:59;2.71;1.12367;1.62367;1.10243;0.5;0.02124
stop loss triggered;2019.03.28 22:08:15;2.71;1.12258;;;1.12258;1.12258
sell;2019.03.28 22:30:59;2.75;1.12367;1.62367;1.10243;0.5;0.02124
stop loss triggered;2019.03.29 10:31:27;2.75;1.12271;;;1.12271;1.12271
sell;2019.04.01 19:03:37;2.79;1.12079;1.62079;1.09955;0.5;0.02124
stop loss triggered;2019.04.02 10:20:40;2.79;1.1197;;;1.1197;1.1197
buy;2019.04.03 11:45:38;2.83;1.12399;0.62399;1.14523;0.5;0.02124
stop loss triggered;2019.04.03 12:55:39;2.83;1.12496;;;1.12496;1.12496
buy;2019.04.03 12:55:39;2.86;1.12399;0.62399;1.14523;0.5;0.02124
stop loss triggered;2019.04.08 17:53:27;2.86;1.12628;;;1.12628;1.12628
buy;2019.04.08 17:53:27;2.92;1.12384;0.62384;1.14508;0.5;0.02124
buy modified;2019.04.09 00:20:36;2.92;1.12624;;;1.12624;1.12624
stop loss triggered;2019.04.09 12:06:28;2.92;1.12745;;;1.12745;1.12745
buy;2019.04.09 12:22:04;2.97;1.12629;0.62629;1.14753;0.5;0.02124
stop loss triggered;2019.04.10 13:18:16;2.97;1.12739;;;1.12739;1.12739
sell;2019.04.10 16:09:39;3.01;1.12411;1.62411;1.10287;0.5;0.02124
buy;2019.04.11 02:05:04;3;1.12641;0.62641;1.14765;0.5;0.02124
stop loss triggered;2019.04.12 03:55:31;3;1.12824;;;1.12824;1.12824
buy;2019.04.15 00:00:30;3;1.12971;0.62971;1.15095;0.5;0.02124
buy;2019.04.15 14:45:00;2.99;1.12971;0.62971;1.15095;0.5;0.02124
stop loss triggered;2019.04.16 10:14:06;2.99;1.13069;;;1.13069;1.13069
stop loss triggered;2019.04.18 21:20:23;3.01;1.12313;;;1.12313;1.12313
sell;2019.04.18 21:20:23;3.18;1.12465;1.62465;1.10341;0.5;0.02124
stop loss triggered;2019.04.23 16:41:36;3.18;1.12183;;;1.12183;1.12183
sell;2019.04.23 17:13:38;3.31;1.12137;1.62137;1.10013;0.5;0.02124
stop loss triggered;2019.04.24 11:01:46;3.31;1.12012;;;1.12012;1.12012
sell;2019.04.24 11:02:41;3.37;1.12025;1.62025;1.09901;0.5;0.02124
stop loss triggered;2019.04.24 16:26:19;3.37;1.11882;;;1.11882;1.11882
sell;2019.04.24 16:26:19;3.44;1.12025;1.62025;1.09901;0.5;0.02124
stop loss triggered;2019.04.25 05:42:16;3.44;1.11604;;;1.11604;1.11604
sell;2019.04.25 05:42:16;3.65;1.11736;1.61736;1.09612;0.5;0.02124
sell modified;2019.04.25 10:37:13;3.65;1.11464;;;1.11464;1.11464
stop loss triggered;2019.04.25 12:52:57;3.65;1.1135;;;1.1135;1.1135
buy;2019.04.29 09:03:31;3.7;1.116;0.616;1.13724;0.5;0.02124
stop loss triggered;2019.04.29 19:43:37;3.7;1.1176;;;1.1176;1.1176
buy;2019.04.29 19:43:37;3.78;1.116;0.616;1.13724;0.5;0.02124
buy modified;2019.04.29 21:18:36;3.78;1.11839;;;1.11839;1.11839
stop loss triggered;2019.04.30 13:25:38;3.78;1.12052;;;1.12052;1.12052
buy;2019.04.30 13:25:38;3.87;1.11887;0.61887;1.14011;0.5;0.02124
buy modified;2019.04.30 14:34:31;3.87;1.12145;;;1.12145;1.12145
stop loss triggered;2019.04.30 16:48:41;3.87;1.12241;;;1.12241;1.12241
buy;2019.04.30 16:48:41;3.91;1.11887;0.61887;1.14011;0.5;0.02124
buy modified;2019.05.01 00:00:30;3.91;1.12128;;;1.12128;1.12128
stop loss triggered;2019.05.01 11:45:08;3.91;1.12243;;;1.12243;1.12243
buy;2019.05.01 12:21:17;3.97;1.12293;0.62293;1.14417;0.5;0.02124
stop loss triggered;2019.05.01 17:09:05;3.97;1.12402;;;1.12402;1.12402
buy;2019.05.01 17:09:05;4.02;1.12293;0.62293;1.14417;0.5;0.02124
buy modified;2019.05.01 21:00:15;4.02;1.12532;;;1.12532;1.12532
sell;2019.05.02 00:00:00;4.04;1.12183;1.62183;1.10059;0.5;0.02124
sell modified;2019.05.02 09:57:35;4.04;1.11943;;;1.11943;1.11943
stop loss triggered;2019.05.02 16:49:39;4.04;1.11822;;;1.11822;1.11822
sell;2019.05.02 16:49:39;4.04;1.11975;1.61975;1.09851;0.5;0.02124
sell modified;2019.05.02 18:21:39;4.04;1.11736;;;1.11736;1.11736
stop loss triggered;2019.05.03 10:17:28;4.04;1.11634;;;1.11634;1.11634
sell;2019.05.09 11:11:28;4.04;1.11952;1.61952;1.09828;0.5;0.02124
stop loss triggered;2019.05.15 15:16:11;4.04;1.11838;;;1.11838;1.11838
sell;2019.05.15 15:16:11;4.04;1.1205;1.6205;1.09926;0.5;0.02124
stop loss triggered;2019.05.16 16:11:25;4.04;1.11916;;;1.11916;1.11916
sell;2019.05.16 16:11:25;4.04;1.12073;1.62073;1.09949;0.5;0.02124
sell modified;2019.05.16 17:12:26;4.04;1.11834;;;1.11834;1.11834
stop loss triggered;2019.05.16 22:30:38;4.04;1.11721;;;1.11721;1.11721
sell;2019.05.16 22:30:38;4.05;1.11865;1.61865;1.09741;0.5;0.02124
sell modified;2019.05.17 12:31:16;4.05;1.11626;;;1.11626;1.11626
stop loss triggered;2019.05.21 09:57:28;4.05;1.11505;;;1.11505;1.11505
sell;2019.05.23 08:03:41;4.05;1.116;1.616;1.09476;0.5;0.02124
sell modified;2019.05.23 10:06:38;4.05;1.11362;;;1.11362;1.11362
stop loss triggered;2019.05.23 16:45:36;4.05;1.11166;;;1.11166;1.11166
sell;2019.05.23 16:45:36;4.07;1.11392;1.61392;1.09268;0.5;0.02124
stop loss triggered;2019.05.29 18:24:41;4.07;1.11295;;;1.11295;1.11295
sell;2019.05.29 18:24:41;4.06;1.11362;1.61362;1.09238;0.5;0.02124
stop loss triggered;2019.05.30 16:59:43;4.06;1.11229;;;1.11229;1.11229
sell;2019.05.30 16:59:43;4.06;1.11477;1.61477;1.09353;0.5;0.02124
stop loss triggered;2019.06.04 09:58:32;4.02;1.12649;;;1.12649;1.12649
buy;2019.06.04 09:58:32;4.43;1.12427;0.62427;1.14551;0.5;0.02124
stop loss triggered;2019.06.04 14:27:59;4.43;1.12565;;;1.12565;1.12565
buy;2019.06.04 14:27:59;4.52;1.12427;0.62427;1.14551;0.5;0.02124
stop loss triggered;2019.06.04 16:57:21;4.52;1.12587;;;1.12587;1.12587
buy;2019.06.04 16:57:21;4.61;1.12427;0.62427;1.14551;0.5;0.02124
stop loss triggered;2019.06.04 21:22:16;4.61;1.12586;;;1.12586;1.12586
buy;2019.06.04 21:22:16;4.71;1.12427;0.62427;1.14551;0.5;0.02124
buy modified;2019.06.05 09:05:31;4.71;1.12667;;;1.12667;1.12667
stop loss triggered;2019.06.05 12:00:25;4.71;1.12785;;;1.12785;1.12785
buy;2019.06.05 15:25:21;4.77;1.12903;0.62903;1.15027;0.5;0.02124
sell;2019.06.06 00:00:00;4.8;1.12389;1.62389;1.10265;0.5;0.02124
stop loss triggered;2019.06.06 14:45:21;4.8;1.1214;;;1.1214;1.1214
stop loss triggered;2019.06.06 15:53:27;4.77;1.13028;;;1.13028;1.13028
buy;2019.06.06 15:53:27;4.97;1.12796;0.62796;1.1492;0.5;0.02124
stop loss triggered;2019.06.06 15:56:15;4.97;1.12896;;;1.12896;1.12896
buy;2019.06.06 15:56:19;5.03;1.12796;0.62796;1.1492;0.5;0.02124
stop loss triggered;2019.06.06 16:02:00;5.03;1.12905;;;1.12905;1.12905
buy;2019.06.06 16:02:38;5.11;1.12796;0.62796;1.1492;0.5;0.02124
stop loss triggered;2019.06.06 18:52:14;5.11;1.12931;;;1.12931;1.12931
buy;2019.06.06 18:52:14;5.2;1.12796;0.62796;1.1492;0.5;0.02124
stop loss triggered;2019.06.07 15:34:43;5.2;1.13044;;;1.13044;1.13044
buy;2019.06.10 00:00:00;5.34;1.13135;0.63135;1.15259;0.5;0.02124
stop loss triggered;2019.06.11 10:39:37;5.34;1.13256;;;1.13256;1.13256
sell;2019.06.13 00:00:00;5.44;1.13118;1.63118;1.10994;0.5;0.02124
sell modified;2019.06.13 13:54:35;5.44;1.12869;;;1.12869;1.12869
stop loss triggered;2019.06.13 17:01:36;5.44;1.12769;;;1.12769;1.12769
sell;2019.06.13 17:01:36;5.51;1.1291;1.6291;1.10786;0.5;0.02124
sell;2019.06.14 15:50:27;5.53;1.12374;1.62374;1.1025;0.5;0.02124
stop loss triggered;2019.06.14 18:05:36;5.53;1.12274;;;1.12274;1.12274
sell;2019.06.14 18:05:36;5.61;1.12374;1.62374;1.1025;0.5;0.02124
sell modified;2019.06.14 19:18:35;5.61;1.12134;;;1.12134;1.12134
stop loss triggered;2019.06.18 11:16:37;5.61;1.12009;;;1.12009;1.12009
buy;2019.06.20 00:00:00;5.72;1.11955;0.61955;1.14079;0.5;0.02124
buy modified;2019.06.20 01:00:26;5.72;1.12291;;;1.12291;1.12291
buy modified;2019.06.20 03:34:35;5.72;1.1253;;;1.1253;1.1253
stop loss triggered;2019.06.20 07:36:00;5.72;1.12663;;;1.12663;1.12663
buy;2019.06.21 04:49:30;5.78;1.12988;0.62988;1.15112;0.5;0.02124
stop loss triggered;2019.06.21 10:22:43;5.78;1.13088;;;1.13088;1.13088
buy;2019.06.21 10:22:43;5.85;1.12988;0.62988;1.15112;0.5;0.02124
stop loss triggered;2019.06.21 13:50:31;5.85;1.13112;;;1.13112;1.13112
buy;2019.06.21 13:50:31;5.95;1.12988;0.62988;1.15112;0.5;0.02124
buy modified;2019.06.21 15:55:36;5.95;1.13227;;;1.13227;1.13227
stop loss triggered;2019.06.21 19:20:18;5.95;1.13366;;;1.13366;1.13366
buy;2019.06.21 19:20:18;6.04;1.13245;0.63245;1.15369;0.5;0.02124
stop loss triggered;2019.06.25 10:45:01;6.04;1.13869;;;1.13869;1.13869
sell;2019.06.26 04:05:40;6.51;1.13627;1.63627;1.11503;0.5;0.02124
stop loss triggered;2019.06.26 16:42:27;6.51;1.13526;;;1.13526;1.13526
sell;2019.06.26 16:42:27;6.6;1.13627;1.63627;1.11503;0.5;0.02124
stop loss triggered;2019.06.27 08:39:27;6.6;1.13529;;;1.13529;1.13529
buy;2019.06.27 12:46:31;6.68;1.13654;0.63654;1.15778;0.5;0.02124
stop loss triggered;2019.06.28 11:15:38;6.68;1.13835;;;1.13835;1.13835
sell;2019.07.01 04:45:42;6.85;1.13506;1.63506;1.11382;0.5;0.02124
stop loss triggered;2019.07.01 09:26:16;6.85;1.13316;;;1.13316;1.13316
sell;2019.07.01 09:26:16;7.03;1.13506;1.63506;1.11382;0.5;0.02124
sell modified;2019.07.01 10:04:12;7.03;1.13232;;;1.13232;1.13232
stop loss triggered;2019.07.02 08:13:16;7.03;1.12912;;;1.12912;1.12912
sell;2019.07.02 22:55:05;7.36;1.12951;1.62951;1.10827;0.5;0.02124
stop loss triggered;2019.07.03 09:41:37;7.36;1.12841;;;1.12841;1.12841
sell;2019.07.04 00:00:00;7.47;1.12925;1.62925;1.10801;0.5;0.02124
stop loss triggered;2019.07.04 12:07:34;7.47;1.12825;;;1.12825;1.12825
sell;2019.07.04 16:00:34;7.57;1.12925;1.62925;1.10801;0.5;0.02124
sell;2019.07.05 16:39:27;7.61;1.12235;1.62235;1.10111;0.5;0.02124
stop loss triggered;2019.07.05 17:48:20;7.61;1.12129;;;1.12129;1.12129
sell;2019.07.05 17:48:20;7.72;1.12235;1.62235;1.10111;0.5;0.02124
stop loss triggered;2019.07.05 18:17:38;7.72;1.12133;;;1.12133;1.12133
sell;2019.07.05 18:17:38;7.83;1.12235;1.62235;1.10111;0.5;0.02124
stop loss triggered;2019.07.08 19:17:59;7.83;1.12126;;;1.12126;1.12126
sell;2019.07.08 19:17:59;7.95;1.12281;1.62281;1.10157;0.5;0.02124
buy;2019.07.10 15:31:29;7.93;1.12346;0.62346;1.1447;0.5;0.02124
buy modified;2019.07.10 18:42:28;7.93;1.12587;;;1.12587;1.12587
stop loss triggered;2019.07.11 06:33:06;7.93;1.12733;;;1.12733;1.12733
sell;2019.07.16 13:19:18;8.05;1.12406;1.62406;1.10282;0.5;0.02124
sell modified;2019.07.16 15:30:26;8.05;1.1216;;;1.1216;1.1216
stop loss triggered;2019.07.17 10:00:34;8.05;1.12052;;;1.12052;1.12052
buy;2019.07.18 00:00:00;8.17;1.12087;0.62087;1.14211;0.5;0.02124
buy modified;2019.07.18 03:53:26;8.17;1.12327;;;1.12327;1.12327
stop loss triggered;2019.07.19 01:20:30;8.17;1.12656;;;1.12656;1.12656
sell;2019.07.23 14:58:42;8.56;1.11855;1.61855;1.09731;0.5;0.02124
sell modified;2019.07.23 16:39:05;8.56;1.11616;;;1.11616;1.11616
stop loss triggered;2019.07.23 23:52:32;8.56;1.11512;;;1.11512;1.11512
sell;2019.07.23 23:52:32;8.69;1.11855;1.61855;1.09731;0.5;0.02124
sell modified;2019.07.24 00:40:40;8.69;1.1152;;;1.1152;1.1152
stop loss triggered;2019.07.24 10:37:30;8.69;1.11356;;;1.11356;1.11356
sell;2019.07.24 10:46:29;8.9;1.11369;1.61369;1.09245;0.5;0.02124
stop loss triggered;2019.07.25 11:01:30;8.9;1.11271;;;1.11271;1.11271
sell;2019.07.25 11:01:30;9.04;1.11492;1.61492;1.09368;0.5;0.02124
buy;2019.07.25 14:45:41;9.02;1.11455;0.61455;1.13579;0.5;0.02124
stop loss triggered;2019.07.25 15:39:29;9.04;1.11173;;;1.11173;1.11173
stop loss triggered;2019.07.25 15:52:28;9.02;1.11558;;;1.11558;1.11558
buy;2019.07.25 15:59:41;9.52;1.11455;0.61455;1.13579;0.5;0.02124
buy modified;2019.07.25 16:49:19;9.52;1.11736;;;1.11736;1.11736
sell;2019.07.31 21:02:39;9.57;1.11122;1.61122;1.08998;0.5;0.02124
stop loss triggered;2019.07.31 21:39:39;9.57;1.10896;;;1.10896;1.10896
sell;2019.07.31 21:40:01;9.59;1.10869;1.60869;1.08745;0.5;0.02124
stop loss triggered;2019.07.31 21:51:02;9.59;1.10724;;;1.10724;1.10724
sell;2019.07.31 21:51:02;9.6;1.10869;1.60869;1.08745;0.5;0.02124
stop loss triggered;2019.07.31 22:17:05;9.6;1.10771;;;1.10771;1.10771
sell;2019.07.31 22:17:05;9.59;1.10869;1.60869;1.08745;0.5;0.02124
stop loss triggered;2019.07.31 22:48:56;9.59;1.10735;;;1.10735;1.10735
sell;2019.07.31 22:48:56;9.6;1.10869;1.60869;1.08745;0.5;0.02124
sell modified;2019.07.31 23:16:15;9.6;1.1063;;;1.1063;1.1063
stop loss triggered;2019.08.01 03:48:31;9.6;1.10453;;;1.10453;1.10453
stop loss triggered;2019.08.05 17:22:15;9.52;1.11911;;;1.11911;1.11911
buy;2019.08.05 17:22:15;10.51;1.11796;0.61796;1.1392;0.5;0.02124
stop loss triggered;2019.08.05 18:49:29;10.51;1.11896;;;1.11896;1.11896
buy;2019.08.05 18:49:29;10.65;1.11796;0.61796;1.1392;0.5;0.02124
buy modified;2019.08.05 19:46:26;10.65;1.12035;;;1.12035;1.12035
stop loss triggered;2019.08.06 04:16:20;10.65;1.12343;;;1.12343;1.12343
buy;2019.08.06 04:16:20;11.03;1.12069;0.62069;1.14193;0.5;0.02124
stop loss triggered;2019.08.07 17:04:16;11.03;1.12293;;;1.12293;1.12293
buy;2019.08.08 11:25:38;11.35;1.12128;0.62128;1.14252;0.5;0.02124
sell;2019.08.08 14:37:12;11.38;1.12085;1.62085;1.09961;0.5;0.02124
sell modified;2019.08.08 15:47:28;11.38;1.11846;;;1.11846;1.11846
stop loss triggered;2019.08.08 17:38:44;11.35;1.12258;;;1.12258;1.12258
buy;2019.08.08 17:38:44;11.35;1.12128;0.62128;1.14252;0.5;0.02124
stop loss triggered;2019.08.12 10:22:59;11.38;1.11751;;;1.11751;1.11751
sell;2019.08.12 10:46:36;11.41;1.11711;1.61711;1.09587;0.5;0.02124
stop loss triggered;2019.08.12 18:18:38;11.35;1.12246;;;1.12246;1.12246
stop loss triggered;2019.08.14 17:54:29;11.41;1.11486;;;1.11486;1.11486
sell;2019.08.14 18:23:30;12.25;1.1143;1.6143;1.09306;0.5;0.02124
stop loss triggered;2019.08.15 16:43:14;12.25;1.1131;;;1.1131;1.1131
sell;2019.08.15 16:43:14;12.49;1.11548;1.61548;1.09424;0.5;0.02124
sell modified;2019.08.15 17:16:40;12.49;1.11083;;;1.11083;1.11083
order canceled;2019.08.15 17:21:55;12.49;1.11083;;;1.11083;1.11083
order canceled;2019.08.15 17:21:56;12.49;1.11083;;;1.11083;1.11083
sell;2019.08.16 11:01:59;12.54;1.10862;1.60862;1.08738;0.5;0.02124
stop loss triggered;2019.08.16 15:47:36;12.54;1.10731;;;1.10731;1.10731
sell;2019.08.16 15:47:36;12.77;1.10862;1.60862;1.08738;0.5;0.02124
stop loss triggered;2019.08.20 11:49:40;12.77;1.10763;;;1.10763;1.10763
sell;2019.08.22 03:56:27;12.95;1.10978;1.60978;1.08854;0.5;0.02124
buy;2019.08.22 11:06:17;12.92;1.10984;0.60984;1.13108;0.5;0.02124
stop loss triggered;2019.08.22 12:22:37;12.95;1.10882;;;1.10882;1.10882
sell;2019.08.22 12:26:35;12.95;1.10978;1.60978;1.08854;0.5;0.02124
sell modified;2019.08.22 13:40:14;12.95;1.10736;;;1.10736;1.10736
stop loss triggered;2019.08.23 14:35:19;12.95;1.10592;;;1.10592;1.10592
stop loss triggered;2019.08.23 17:53:30;12.92;1.11092;;;1.11092;1.11092
sell;2019.08.28 17:57:39;42.33;1.10783;1.60783;1.09947;0.5;0.00836
stop loss triggered;2019.08.29 12:05:05;42.33;1.10739;;;1.10739;1.10739
sell;2019.08.30 09:31:02;43.13;1.104;1.604;1.09564;0.5;0.00836
stop loss triggered;2019.08.30 10:20:29;43.13;1.10358;;;1.10358;1.10358
sell;2019.08.30 10:20:29;43.6;1.104;1.604;1.09564;0.5;0.00836
stop loss triggered;2019.08.30 17:54:38;43.6;1.10342;;;1.10342;1.10342
sell;2019.08.30 17:54:38;44.24;1.104;1.604;1.09564;0.5;0.00836
sell modified;2019.08.30 18:36:40;44.24;1.09886;;;1.09886;1.09886
stop loss triggered;2019.08.30 21:18:04;44.24;1.09757;;;1.09757;1.09757
sell;2019.08.30 21:18:04;45.95;1.10014;1.60014;1.09178;0.5;0.00836
buy;2019.09.04 10:49:38;45.89;1.09858;0.59858;1.10694;0.5;0.00836
stop loss triggered;2019.09.04 11:28:26;45.89;1.09905;;;1.09905;1.09905
buy;2019.09.04 11:28:26;46.43;1.09858;0.59858;1.10694;0.5;0.00836
buy modified;2019.09.04 11:58:27;46.43;1.10031;;;1.10031;1.10031
buy modified;2019.09.04 11:59:38;46.43;1.1009;;;1.1009;1.1009
stop loss triggered;2019.09.04 13:01:13;46.43;1.10169;;;1.10169;1.10169
buy;2019.09.04 13:01:13;47.3;1.10101;0.60101;1.10937;0.5;0.00836
stop loss triggered;2019.09.04 15:01:31;47.3;1.10146;;;1.10146;1.10146
buy;2019.09.04 15:01:31;47.84;1.10101;0.60101;1.10937;0.5;0.00836
stop loss triggered;2019.09.04 16:05:04;47.84;1.10152;;;1.10152;1.10152
buy;2019.09.04 16:05:04;48.45;1.10101;0.60101;1.10937;0.5;0.00836
stop loss triggered;2019.09.04 17:33:30;48.45;1.10217;;;1.10217;1.10217
buy;2019.09.04 17:33:30;49.83;1.10101;0.60101;1.10937;0.5;0.00836
buy modified;2019.09.04 18:05:36;49.83;1.10299;;;1.10299;1.10299
stop loss triggered;2019.09.04 21:57:12;49.83;1.10351;;;1.10351;1.10351
buy;2019.09.04 21:57:12;50;1.10101;0.60101;1.10937;0.5;0.00836
buy modified;2019.09.05 00:00:00;50;1.10324;;;1.10324;1.10324
stop loss triggered;2019.09.05 10:53:30;50;1.10387;;;1.10387;1.10387
buy;2019.09.05 16:56:35;50;1.10731;0.60731;1.11567;0.5;0.00836
sell;2019.09.11 13:53:36;50;1.10139;1.60139;1.09303;0.5;0.00836
sell modified;2019.09.11 14:26:36;50;1.10079;;;1.10079;1.10079
sell modified;2019.09.11 14:50:31;50;1.10017;;;1.10017;1.10017
stop loss triggered;2019.09.11 16:30:59;50;1.09968;;;1.09968;1.09968
sell;2019.09.11 16:30:59;50;1.10139;1.60139;1.09303;0.5;0.00836
sell modified;2019.09.11 17:00:40;50;1.09959;;;1.09959;1.09959
sell modified;2019.09.11 17:09:04;50;1.09899;;;1.09899;1.09899
stop loss triggered;2019.09.12 20:09:40;50;1.10774;;;1.10774;1.10774
buy;2019.09.13 09:30:41;50;1.10864;0.60864;1.117;0.5;0.00836
stop loss triggered;2019.09.13 09:58:42;50;1.10924;;;1.10924;1.10924
buy;2019.09.13 09:58:42;50;1.10864;0.60864;1.117;0.5;0.00836
stop loss triggered;2019.09.13 11:46:55;50;1.10927;;;1.10927;1.10927
buy;2019.09.13 11:46:55;50;1.10864;0.60864;1.117;0.5;0.00836
sell;2019.09.16 16:04:36;50;1.10283;1.60283;1.09447;0.5;0.00836
sell modified;2019.09.16 16:52:35;50;1.10207;;;1.10207;1.10207
sell modified;2019.09.16 16:56:39;50;1.10148;;;1.10148;1.10148
stop loss triggered;2019.09.16 17:12:05;50;1.1008;;;1.1008;1.1008
sell;2019.09.16 17:12:05;50;1.10283;1.60283;1.09447;0.5;0.00836
sell modified;2019.09.16 17:53:00;50;1.10056;;;1.10056;1.10056
stop loss triggered;2019.09.16 17:55:42;50;1.09995;;;1.09995;1.09995
sell;2019.09.16 17:55:47;50;1.10004;1.60004;1.09168;0.5;0.00836
stop loss triggered;2019.09.17 09:58:39;50;1.09945;;;1.09945;1.09945
sell;2019.09.20 17:19:40;50;1.10119;1.60119;1.09283;0.5;0.00836
stop loss triggered;2019.09.20 17:54:40;50;1.10076;;;1.10076;1.10076
sell;2019.09.20 17:54:40;50;1.10119;1.60119;1.09283;0.5;0.00836
stop loss triggered;2019.09.20 18:02:41;50;1.10076;;;1.10076;1.10076
sell;2019.09.20 18:02:41;50;1.10119;1.60119;1.09283;0.5;0.00836
stop loss triggered;2019.09.20 18:50:55;50;1.10034;;;1.10034;1.10034
sell;2019.09.20 18:50:55;50;1.10119;1.60119;1.09283;0.5;0.00836
sell;2019.09.25 17:56:05;50;1.09594;1.59594;1.08758;0.5;0.00836
stop loss triggered;2019.09.25 18:19:41;50;1.09544;;;1.09544;1.09544
sell;2019.09.25 18:19:41;50;1.09594;1.59594;1.08758;0.5;0.00836
sell modified;2019.09.25 18:57:02;50;1.0952;;;1.0952;1.0952
sell modified;2019.09.25 19:08:03;50;1.09461;;;1.09461;1.09461
stop loss triggered;2019.09.25 21:55:06;50;1.09411;;;1.09411;1.09411
sell;2019.09.25 21:55:06;50;1.09594;1.59594;1.08758;0.5;0.00836
sell modified;2019.09.26 00:02:59;50;1.09437;;;1.09437;1.09437
stop loss triggered;2019.09.26 11:40:27;50;1.09378;;;1.09378;1.09378
sell;2019.09.27 00:48:24;50;1.09205;1.59205;1.08369;0.5;0.00836
stop loss triggered;2019.09.27 03:38:30;50;1.09118;;;1.09118;1.09118
sell;2019.09.27 03:38:30;50;1.09205;1.59205;1.08369;0.5;0.00836
stop loss triggered;2019.09.27 09:26:34;50;1.09128;;;1.09128;1.09128
sell;2019.09.27 09:26:34;50;1.09205;1.59205;1.08369;0.5;0.00836
stop loss triggered;2019.09.30 14:37:38;50;1.09125;;;1.09125;1.09125
stop loss triggered;2019.10.17 11:44:29;50;1.10897;;;1.10897;1.10897
buy;2019.10.17 12:38:39;50;1.11245;0.61245;1.12081;0.5;0.00836
stop loss triggered;2019.10.17 19:32:04;50;1.11291;;;1.11291;1.11291
buy;2019.10.18 14:32:16;50;1.11402;0.61402;1.12238;0.5;0.00836
buy modified;2019.10.18 15:44:34;50;1.1146;;;1.1146;1.1146
stop loss triggered;2019.10.18 19:01:01;50;1.11534;;;1.11534;1.11534
buy;2019.10.18 19:01:01;50;1.11402;0.61402;1.12238;0.5;0.00836
buy modified;2019.10.18 19:49:28;50;1.11563;;;1.11563;1.11563
buy modified;2019.10.18 22:23:03;50;1.11621;;;1.11621;1.11621
stop loss triggered;2019.10.18 23:55:40;50;1.11673;;;1.11673;1.11673
buy;2019.10.18 23:55:40;50;1.11402;0.61402;1.12238;0.5;0.00836
sell;2019.10.23 12:57:24;50;1.11159;1.61159;1.10323;0.5;0.00836
stop loss triggered;2019.10.23 14:04:12;50;1.11102;;;1.11102;1.11102
sell;2019.10.23 14:04:12;50;1.11159;1.61159;1.10323;0.5;0.00836
stop loss triggered;2019.10.24 17:20:24;50;1.11111;;;1.11111;1.11111
sell;2019.10.25 16:45:41;50;1.10914;1.60914;1.10078;0.5;0.00836
stop loss triggered;2019.10.25 18:22:27;50;1.1086;;;1.1086;1.1086
sell;2019.10.25 18:22:27;50;1.10914;1.60914;1.10078;0.5;0.00836
stop loss triggered;2019.10.25 21:21:37;50;1.10815;;;1.10815;1.10815
sell;2019.10.25 21:21:37;50;1.10914;1.60914;1.10078;0.5;0.00836
buy;2019.10.30 21:01:39;50;1.11256;0.61256;1.12092;0.5;0.00836
buy modified;2019.10.30 21:25:10;50;1.11476;;;1.11476;1.11476
stop loss triggered;2019.10.31 00:47:37;50;1.11521;;;1.11521;1.11521
sell;2019.11.05 16:08:16;50;1.11014;1.61014;1.10178;0.5;0.00836
sell modified;2019.11.05 17:00:14;50;1.10886;;;1.10886;1.10886
sell modified;2019.11.05 17:01:23;50;1.10818;;;1.10818;1.10818
sell modified;2019.11.05 17:01:57;50;1.10759;;;1.10759;1.10759
stop loss triggered;2019.11.05 17:45:59;50;1.10702;;;1.10702;1.10702
sell;2019.11.05 18:07:35;50;1.10732;1.60732;1.09896;0.5;0.00836
sell modified;2019.11.05 18:33:02;50;1.10674;;;1.10674;1.10674
stop loss triggered;2019.11.07 04:59:30;50;1.10612;;;1.10612;1.10612
sell;2019.11.08 13:10:36;50;1.10339;1.60339;1.09503;0.5;0.00836
stop loss triggered;2019.11.08 16:48:39;50;1.10282;;;1.10282;1.10282
sell;2019.11.08 16:48:39;50;1.10339;1.60339;1.09503;0.5;0.00836
sell modified;2019.11.08 17:26:37;50;1.10236;;;1.10236;1.10236
stop loss triggered;2019.11.11 03:07:07;50;1.10193;;;1.10193;1.10193
buy;2019.11.15 13:27:15;50;1.10297;0.60297;1.11133;0.5;0.00836
stop loss triggered;2019.11.15 15:31:41;50;1.1034;;;1.1034;1.1034
buy;2019.11.15 15:31:41;50;1.10297;0.60297;1.11133;0.5;0.00836
buy modified;2019.11.15 15:56:04;50;1.10355;;;1.10355;1.10355
buy modified;2019.11.15 16:05:31;50;1.10416;;;1.10416;1.10416
stop loss triggered;2019.11.15 18:11:59;50;1.10491;;;1.10491;1.10491
buy;2019.11.15 18:11:59;50;1.10297;0.60297;1.11133;0.5;0.00836
buy modified;2019.11.15 19:59:14;50;1.10519;;;1.10519;1.10519
stop loss triggered;2019.11.18 08:28:03;50;1.10591;;;1.10591;1.10591
buy;2019.11.18 18:16:38;50;1.10841;0.60841;1.11677;0.5;0.00836
stop loss triggered;2019.11.21 15:11:19;50;1.10914;;;1.10914;1.10914
sell;2019.11.22 16:46:25;50;1.10499;1.60499;1.09663;0.5;0.00836
sell modified;2019.11.22 17:16:04;50;1.10437;;;1.10437;1.10437
stop loss triggered;2019.11.25 07:57:59;50;1.1029;;;1.1029;1.1029
sell;2019.11.29 15:10:05;50;1.09897;1.59897;1.09061;0.5;0.00836
buy;2019.12.02 17:00:42;50;1.10554;0.60554;1.1139;0.5;0.00836
buy modified;2019.12.02 17:24:13;50;1.10701;;;1.10701;1.10701
stop loss triggered;2019.12.02 18:51:22;50;1.10808;;;1.10808;1.10808
buy;2019.12.04 16:00:00;50;1.10994;0.60994;1.1183;0.5;0.00836
buy modified;2019.12.04 17:00:27;50;1.11063;;;1.11063;1.11063
buy modified;2019.12.04 17:00:41;50;1.11133;;;1.11133;1.11133
sell;2019.12.06 17:01:00;50;1.10645;1.60645;1.09809;0.5;0.00836
stop loss triggered;2019.12.06 18:42:36;50;1.10518;;;1.10518;1.10518
stop loss triggered;2019.12.11 23:47:37;50;1.11291;;;1.11291;1.11291
buy;2019.12.13 00:27:31;50;1.11554;0.61554;1.1239;0.5;0.00836
buy;2019.12.27 04:40:33;50;1.1111;0.6111;1.11946;0.5;0.00836
buy modified;2019.12.27 05:16:40;50;1.11168;;;1.11168;1.11168
buy modified;2019.12.27 09:35:30;50;1.11229;;;1.11229;1.11229
buy modified;2019.12.27 10:00:17;50;1.11287;;;1.11287;1.11287
buy modified;2019.12.27 10:08:41;50;1.11346;;;1.11346;1.11346
stop loss triggered;2019.12.27 12:23:24;50;1.11395;;;1.11395;1.11395
buy;2019.12.27 12:23:24;50;1.1111;0.6111;1.11946;0.5;0.00836
buy modified;2019.12.27 12:47:04;50;1.11399;;;1.11399;1.11399
buy modified;2019.12.27 12:59:41;50;1.11459;;;1.11459;1.11459
stop loss triggered;2019.12.27 14:10:38;50;1.11504;;;1.11504;1.11504
buy;2019.12.27 14:10:38;50;1.1111;0.6111;1.11946;0.5;0.00836
buy modified;2019.12.27 14:55:24;50;1.1152;;;1.1152;1.1152
stop loss triggered;2019.12.27 15:41:26;50;1.11565;;;1.11565;1.11565
buy;2019.12.27 15:41:26;50;1.11496;0.61496;1.12332;0.5;0.00836
buy modified;2019.12.27 16:43:26;50;1.11565;;;1.11565;1.11565
buy modified;2019.12.27 17:04:41;50;1.11624;;;1.11624;1.11624
stop loss triggered;2019.12.27 17:54:38;50;1.11715;;;1.11715;1.11715
buy;2019.12.27 17:54:38;50;1.11496;0.61496;1.12332;0.5;0.00836
buy modified;2019.12.27 19:40:05;50;1.11764;;;1.11764;1.11764
buy modified;2019.12.27 21:03:34;50;1.11822;;;1.11822;1.11822
stop loss triggered;2019.12.30 06:01:37;50;1.11967;;;1.11967;1.11967
buy;2019.12.30 18:46:15;50;1.12143;0.62143;1.12979;0.5;0.00836
