type;date;lot;price;sl;tp;sl size;tp size;m15_open;m15_close;m15_high;m15_low;m15_rsi7;m15_rsi14;m15_rsi21;m15_sma26;m15_volume;m15_atr14;m15_macd14_main;m15_macd14_signal;m15_macd14_main_pos;m15_ macd14_signal_pos;m15_macd14_signal_in;h1_open;h1_close;h1_high;h1_low;h1_rsi7;h1_rsi14;h1_rsi21;h1_sma26;h1_volume;h1_atr14;h1_macd14_main;h1_macd14_signal;h1_macd14_main_pos;h1_ macd14_signal_pos;h1_macd14_signal_in
sell;2019.01.02 14:28:37;0.88;1.14077;1.64077;1.11953;0.5;0.02124;1.14288;1.1403;1.14288;1.14023;19.318055;29.86126;34.835614;1.144073;1335.0;0.001051428571428593;-0.0006043017769199466;-0.000348708289469026;0;0;1;1.14338;1.1405;1.14339;1.13976;20.750273;29.400171;34.018815;1.143508;1196.0;0.0009478571428571358;-0.001002747015681926;-0.0005538318880338024;0;0;1
sell;2019.01.02 16:21:43;0.9;1.13824;1.63824;1.117;0.5;0.02124;1.13737;1.13681;1.13737;1.13636;14.233344;22.371144;27.625477;1.142075;1754.0;0.001177142857142846;-0.001814754820465447;-0.001214666134554883;0;0;1;1.13716;1.13605;1.13752;1.13578;28.238745;27.875821;30.739606;1.141072;1940.0;0.001192857142857107;-0.001970217144825925;-0.001619969617385959;0;0;1
buy;2019.01.07 03:44:16;0.91;1.14166;0.64166;1.1629;0.5;0.02124;1.14112;1.14196;1.14204;1.14101;77.30341199999999;66.619878;61.347831;1.140394;459.0;0.0004657142857142608;0.0003593366820819899;0.0002686003288128087;1;1;1;1.14092;1.14209;1.14229;1.14078;68.33614;63.619207;59.981656;1.140632;243.0;0.0004592857142856949;0.0004658081653519108;0.0003366235985892664;1;1;1
buy;2019.01.07 20:41:34;0.96;1.14557;0.64557;1.16681;0.5;0.02124;1.14766;1.14727;1.14781;1.14725;58.375292;62.190987;62.877721;1.146232;590.0;0.0008192857142857064;0.0007317709651897264;0.0007381094853200147;1;1;0;1.14689;1.1474;1.14823;1.14676;66.94216299999999;66.276927;65.61537199999999;1.146644;642.0;0.0006714285714285466;0.0007400625944171679;0.0007263253897748974;1;1;1
buy;2019.01.09 18:35:37;1;1.15232;0.65232;1.17356;0.5;0.02124;1.15216;1.15359;1.15376;1.15199;74.210263;72.197203;70.230232;1.147855;1938.0;0.001543571428571439;0.00189350688232115;0.001483310351456006;1;1;1;1.15102;1.15237;1.15376;1.15092;66.22214099999999;67.128086;66.39697099999999;1.148715;958.0;0.00154928571428573;0.001847598502819237;0.001784434678991442;1;1;1
sell;2019.01.14 00:00:30;1.04;1.14792;1.64792;1.12668;0.5;0.02124;1.14579;1.14611;1.14626;1.14579;37.382833;34.889289;35.316121;1.146998;372.0;0.0004557142857142901;-0.0007528450448510693;-0.0008838203217797156;0;0;0;1.14579;1.14646;1.14656;1.14579;51.09263;41.033959;38.958667;1.146868;184.0;0.0004414285714285933;-0.0006295447200426185;-0.0007874385677840191;0;0;0
sell;2019.01.15 14:08:40;1.14;1.14286;1.64286;1.12162;0.5;0.02124;1.14315;1.14148;1.14345;1.14121;20.288358;23.535385;26.333701;1.145081;1937.0;0.001049285714285753;-0.001256366879011317;-0.001231422560158436;0;0;1;1.14315;1.14297;1.14345;1.14121;47.5185;39.581511;38.103164;1.14447;1039.0;0.0008492857142857595;-0.001105839236533956;-0.001216749772692171;0;0;0
sell;2019.01.15 19:23:04;1.18;1.13976;1.63976;1.11852;0.5;0.02124;1.13958;1.13889;1.13968;1.13828;27.29125;31.857362;33.616241;1.142415;1251.0;0.001377857142857114;-0.001315368693981966;-0.0007130913901243305;0;0;1;1.13923;1.13895;1.14007;1.13828;25.777302;30.81545;32.78466;1.141917;798.0;0.001342857142857123;-0.001463255626185989;-0.001124014769032749;0;0;1
sell;2019.01.16 14:12:13;1.2;1.1399;1.6399;1.11866;0.5;0.02124;1.1378;1.13842;1.13861;1.13778;30.088784;35.618436;38.763351;1.140377;1108.0;0.0007271428571428161;-0.0005386814764740677;-0.0001025343886517806;0;0;1;1.1378;1.13865;1.13966;1.13778;39.824175;40.616652;41.949983;1.140153;1210.0;0.0007692857142856797;-0.0005527110784588896;-0.0003464274373964075;0;0;1
sell;2019.01.17 07:50:09;1.23;1.14028;1.64028;1.11904;0.5;0.02124;1.13846;1.13876;1.13876;1.13842;55.131325;45.960103;45.00311;1.139121;223.0;0.0003578571428571725;-0.0003324033825278239;-0.0003256555038422108;0;0;1;1.13825;1.13876;1.13876;1.13789;57.550683;47.954402;46.270334;1.139;366.0;0.0003542857142857363;-0.0002190827561157072;-0.0003223479470817072;0;0;0
sell;2019.01.21 00:00:00;1.25;1.13645;1.63645;1.11521;0.5;0.02124;1.13593;1.13613;1.13618;1.13593;32.841276;38.02213;38.766269;1.13636;171.0;0.0003242857142857143;-0.0003379580140530081;-0.000390159126081298;0;0;0;1.13593;1.13654;1.13675;1.13593;53.098188;46.166697;43.790156;1.136419;108.0;0.0003257142857142793;-0.0002421146302327148;-0.0003314096611394723;0;0;0
buy;2019.01.23 18:20:29;1.26;1.13866;0.63866;1.1599;0.5;0.02124;1.13852;1.13895;1.13917;1.13852;74.90645499999999;68.790701;65.29001100000001;1.136508;1454.0;0.0009192857142856949;0.0005269642406862118;0.000128790117947829;1;1;1;1.1379;1.13894;1.13936;1.13774;69.502178;66.462091;63.900697;1.13694;1083.0;0.0008892857142857046;0.0007373239943815335;0.0003897919872270964;1;1;1
sell;2019.01.24 10:15:25;1.27;1.13667;1.63667;1.11543;0.5;0.02124;1.13702;1.13552;1.13702;1.13398;8.222066;16.481301;23.791966;1.138201;2577.0;0.000647142857142847;-0.0005059160296072562;-0.0002033248436304024;0;0;1;1.13699;1.13646;1.13764;1.13398;28.712815;30.256539;32.921401;1.137949;1393.0;0.0009371428571428435;-0.0006283860776730155;-0.0003801341852889865;0;0;1
sell;2019.01.24 15:33:30;1.27;1.13459;1.63459;1.11335;0.5;0.02124;1.13364;1.13164;1.13424;1.13062;19.169918;26.995863;29.717129;1.134957;4423.0;0.00112785714285711;-0.0009424661933279399;-0.0008730463526443751;0;0;1;1.13399;1.13352;1.1348;1.13062;67.941373;58.790954;54.886677;1.134777;2199.0;0.001510714285714271;-0.0003806943086077652;-0.0007525304684753162;0;0;0
buy;2019.01.28 00:00:00;1.38;1.13854;0.63854;1.15978;0.5;0.02124;1.14002;1.14029;1.14046;1.14002;32.98011;51.548419;57.80122;1.140804;837.0;0.0005314285714285649;0.0006564459626925423;0.0009730720050477802;1;1;0;1.14002;1.14086;1.14107;1.14002;49.232762;56.653526;60.518798;1.14088;79.0;0.0005071428571428501;0.0005286740667349576;0.0007832102203013076;1;1;0
buy;2019.01.28 20:45:00;1.4;1.14245;0.64245;1.16369;0.5;0.02124;1.14348;1.14349;1.14363;1.14342;54.143101;57.565235;57.667336;1.142822;368.0;0.000528571428571451;0.0004840599261934919;0.0005895308357871196;1;1;0;1.14344;1.14349;1.14392;1.1434;37.652904;50.321493;53.081406;1.143007;382.0;0.0004728571428571493;0.0003174535852175087;0.0004940789997846492;1;1;0
buy;2019.01.30 21:03:40;1.41;1.14639;0.64639;1.16763;0.5;0.02124;1.14169;1.14688;1.14738;1.14169;85.02998599999999;75.40536400000001;69.660257;1.142184;4091.0;0.0009557142857142839;0.000210988420421776;-0.0001886283790709628;1;0;0;1.14169;1.1492;1.15016;1.14169;82.364712;76.91334999999999;72.542165;1.142872;2543.0;0.001234999999999988;0.001328002577291709;0.0002277677007427957;1;1;1
sell;2019.02.04 16:51:29;1.45;1.14303;1.64303;1.12179;0.5;0.02124;1.14368;1.14264;1.14374;1.14247;20.38882;30.144542;34.100067;1.14454;1195.0;0.0006349999999999904;-0.0002930262123768124;-6.304732022779389e-05;0;0;1;1.14488;1.14264;1.14503;1.14247;43.570085;43.018818;43.371198;1.144368;1148.0;0.0007085714285714252;-0.000353770580034718;-0.0001776688617319317;0;0;1
sell;2019.02.05 18:13:29;1.48;1.1416;1.6416;1.12036;0.5;0.02124;1.14066;1.14023;1.14106;1.14017;22.367982;31.268631;34.557664;1.141911;1232.0;0.0008064285714285906;-0.0004156468242588751;-0.0001262900659587897;0;0;1;1.14066;1.1405;1.14106;1.1401;34.229754;36.929365;38.416805;1.141756;678.0;0.000826428571428579;-0.0004814634953291819;-0.0003048746239532553;0;0;1
sell;2019.02.06 08:16:42;1.5;1.13976;1.63976;1.11852;0.5;0.02124;1.13945;1.13935;1.13947;1.1392;23.926087;33.47193;36.821552;1.140112;327.0;0.0002528571428571518;-0.0002478046435876458;-0.0002013864271818379;0;0;1;1.13965;1.13899;1.13981;1.13875;11.768033;24.047841;29.864107;1.139907;1099.0;0.0003300000000000226;-0.0003773736169800923;-0.0002379780389817567;0;0;1
sell;2019.02.07 05:00:00;1.52;1.13818;1.63818;1.11694;0.5;0.02124;1.13606;1.13597;1.13613;1.13591;32.395857;34.418093;35.350899;1.13638;117.0;0.0002714285714285907;-0.000250831258743478;-0.0002362310368044156;0;0;1;1.13606;1.13596;1.13613;1.1359;34.24183;35.239436;35.821615;1.136301;114.0;0.0002428571428571971;-0.0002277648584956271;-0.0002463106283822047;0;0;0
sell;2019.02.07 12:07:03;1.55;1.1361;1.6361;1.11486;0.5;0.02124;1.1345;1.13363;1.13464;1.13362;21.755017;26.627193;28.998922;1.135549;1154.0;0.0006599999999999798;-0.0005143088503274384;-0.000338181074365856;0;0;1;1.1345;1.13364;1.13464;1.13317;24.334346;27.914445;29.886443;1.135289;933.0;0.0006114285714285503;-0.0006265246644994171;-0.0004543835737285712;0;0;1
sell;2019.02.11 00:34:34;1.58;1.13179;1.63179;1.11055;0.5;0.02124;1.13159;1.13177;1.13241;1.13151;36.635357;37.841498;39.632861;1.132396;722.0;0.0003414285714285577;-0.0003564751825073653;-0.0003205238523476087;0;0;1;1.13188;1.13183;1.13241;1.13144;48.169087;42.943986;42.701337;1.132315;170.0;0.0003214285714285695;-0.0003070256544766004;-0.0003215169751649992;0;0;0
sell;2019.02.11 18:15:14;1.67;1.12788;1.62788;1.10664;0.5;0.02124;1.12775;1.128;1.12834;1.12753;31.522697;32.601551;33.958855;1.13006;712.0;0.0009064285714285634;-0.0008911281277834693;-0.0006311156048734363;0;0;1;1.12759;1.12759;1.12834;1.12747;30.349099;31.746335;33.211967;1.129764;657.0;0.0008828571428571389;-0.0009253520141370153;-0.0007878940145232066;0;0;1
sell;2019.02.12 10:39:41;1.69;1.1275;1.6275;1.10626;0.5;0.02124;1.12672;1.12624;1.127;1.12581;22.18177;30.031534;33.786794;1.127953;1552.0;0.0006357142857142643;-0.000149287917612817;6.077625203594676e-05;0;1;0;1.1285;1.12658;1.12903;1.12576;46.253636;44.947243;44.965709;1.127807;815.0;0.0007357142857142691;-0.0002570995888047101;-4.994390799428547e-05;0;0;1
buy;2019.02.13 00:00:00;1.68;1.1315;0.6315;1.15274;0.5;0.02124;1.13248;1.13274;1.13296;1.13237;45.289625;57.066753;59.925076;1.132596;210.0;0.0003692857142857554;0.0005661440118585048;0.0008260012729867858;1;1;0;1.13248;1.13291;1.133;1.13237;53.389332;59.29976;61.157571;1.132827;152.0;0.0003400000000000554;0.0004451462053240984;0.0006490603244279351;1;1;0
buy;2019.02.20 00:03:32;1.72;1.1338;0.6338;1.15504;0.5;0.02124;1.13392;1.13424;1.13434;1.13392;55.857571;57.863848;58.525193;1.13407;128.0;0.000379999999999937;0.000455475546866202;0.0006269982531729689;1;1;0;1.13392;1.1339;1.13434;1.13352;45.864338;53.324524;55.634544;1.134128;251.0;0.0003699999999999032;0.000312189507038596;0.0004871777683465796;1;1;0
sell;2019.02.21 08:01:30;1.8;1.13452;1.63452;1.11328;0.5;0.02124;1.1336;1.13329;1.1336;1.13292;19.973379;33.171963;38.745258;1.134228;854.0;0.00046071428571426;-9.456085841996753e-05;6.554382520461827e-05;0;1;0;1.1336;1.13301;1.1336;1.13251;18.389193;30.774644;36.757182;1.134052;492.0;0.0004828571428571353;-0.000293226670593949;-3.837131780449626e-05;0;0;1
buy;2019.02.26 21:42:30;1.79;1.13888;0.63888;1.16012;0.5;0.02124;1.13913;1.13994;1.14027;1.13905;82.729258;71.745141;67.303499;1.137074;1353.0;0.0006950000000000018;0.0007314271072562661;0.0004801337465027139;1;1;1;1.13802;1.13962;1.14027;1.13798;66.552933;64.563351;62.537948;1.137421;619.0;0.000583571428571446;0.0008190380940673592;0.0006190889620596589;1;1;1
buy;2019.02.27 13:27:37;1.79;1.13853;0.63853;1.15977;0.5;0.02124;1.14017;1.13989;1.14035;1.13976;65.571015;64.422263;62.16756;1.138598;894.0;0.0006478571428571375;0.0004429267512171542;0.0003396771063121111;1;1;1;1.13945;1.13966;1.14035;1.1393;43.749885;52.336879;53.901154;1.138801;863.0;0.0006035714285714503;0.0003788840968832474;0.000391217761127817;1;1;0
buy;2019.02.28 15:23:20;1.79;1.13892;0.63892;1.16016;0.5;0.02124;1.14157;1.14064;1.14158;1.14025;46.886368;56.555775;58.84532;1.13981;1360.0;0.0007264285714285569;0.000798839031995735;0.0009136974220808825;1;1;0;1.14101;1.13862;1.14177;1.13819;26.664006;38.377307;43.444002;1.139869;1765.0;0.0008728571428571361;0.0001740204163507286;0.0007277095330006856;1;1;0
sell;2019.03.05 17:18:42;1.93;1.13124;1.63124;1.11;0.5;0.02124;1.13088;1.12933;1.13088;1.1293;16.602627;26.721916;31.37107;1.13259;1901.0;0.000850714285714277;-0.0004239107372261408;-7.749247635906672e-05;0;0;1;1.13256;1.13063;1.13256;1.12919;30.560551;33.983524;36.259569;1.132257;1737.0;0.0009471428571428457;-0.0007204813230714535;-0.0002885169391943656;0;0;1
sell;2019.03.06 15:32:02;1.93;1.12953;1.62953;1.10829;0.5;0.02124;1.13061;1.13018;1.13086;1.12853;45.277131;48.637364;49.255994;1.130315;2502.0;0.0005999999999999668;6.269378867340691e-05;7.447139622762962e-05;1;1;0;1.13027;1.13046;1.13149;1.12853;67.936232;61.306193;58.234679;1.1304;1091.0;0.0006557142857142685;0.0001419967527140908;7.848002087057172e-05;1;1;1
buy;2019.03.07 01:46:23;1.93;1.12986;0.62986;1.1511;0.5;0.02124;1.13108;1.13129;1.13134;1.13106;70.801936;59.413608;56.239637;1.130857;273.0;0.0002207142857142418;4.835863646746041e-05;-4.125173414202771e-06;1;0;0;1.13078;1.13129;1.13134;1.13064;61.915959;56.766261;54.865406;1.130919;441.0;0.0002449999999999725;9.243149403714845e-05;2.841650058829623e-05;1;1;1
sell;2019.03.07 14:46:27;1.94;1.12963;1.62963;1.10839;0.5;0.02124;1.13078;1.12885;1.1308;1.12746;14.468303;26.193989;31.751175;1.130896;3663.0;0.0006450000000000078;-0.0001235699519177569;0.0001299591026584901;0;1;0;1.13088;1.12885;1.13105;1.12746;6.488985;15.09554;20.439808;1.130461;3050.0;0.0008428571428571463;-0.0008921272938595681;-0.000158876119792012;0;0;1
buy;2019.03.13 16:35:59;2.19;1.12975;0.62975;1.15099;0.5;0.02124;1.131;1.13064;1.13124;1.13055;58.686681;59.237362;58.670048;1.129776;793.0;0.0007800000000000352;0.0004535649735308844;0.0003210193635637466;1;1;1;1.13073;1.13053;1.13135;1.13052;56.243711;57.476103;57.374387;1.129906;982.0;0.0007235714285714907;0.0003908497026681168;0.0003804006791191806;1;1;1
buy;2019.03.14 10:17:04;2.22;1.13042;0.63042;1.15166;0.5;0.02124;1.13321;1.13271;1.13321;1.13262;59.21967;55.758824;54.6205;1.132248;983.0;0.0005350000000000002;4.176822185364415e-05;-0.0001247824085426677;1;0;0;1.13234;1.13262;1.13359;1.13234;39.928331;44.437519;46.433304;1.132212;1507.0;0.0006364285714285858;4.873605200783615e-05;-2.688589418533462e-05;1;0;0
buy;2019.03.18 00:00:00;2.26;1.1319;0.6319;1.15314;0.5;0.02124;1.13213;1.13238;1.1326;1.13213;56.060358;52.81458;52.183757;1.132276;137.0;0.0004028571428571179;3.272374165463887e-05;-4.033860893254673e-05;1;0;0;1.13213;1.13261;1.13276;1.13213;63.180619;56.099517;54.240047;1.132207;137.0;0.0003628571428571255;9.202748256731397e-05;1.17134455614428e-05;1;1;1
buy;2019.03.20 20:00:46;2.35;1.13752;0.63752;1.15876;0.5;0.02124;1.1357;1.14107;1.14138;1.1357;90.06729900000001;82.455151;77.83139799999999;1.135787;4125.0;0.0009635714285714764;0.0004233202962273808;4.066658697216997e-05;1;1;1;1.1357;1.1446;1.14469;1.1357;94.024857;87.986676;83.851842;1.136655;2314.0;0.001280000000000043;0.001754996001555265;0.0004652298787637313;1;1;1
buy;2019.03.21 00:00:00;2.34;1.13909;0.63909;1.16033;0.5;0.02124;1.14241;1.14222;1.14275;1.14222;60.742932;63.300763;63.90308;1.139892;906.0;0.001014999999999973;0.001330822534632903;0.001653788435614816;1;1;0;1.14241;1.1421;1.14275;1.1421;56.645615;61.713735;62.840638;1.140688;157.0;0.0007192857142856845;0.00114886836126149;0.001398036153100368;1;1;0
sell;2019.03.22 10:47:41;2.37;1.12912;1.62912;1.10788;0.5;0.02124;1.13121;1.13029;1.13122;1.12884;6.387413;12.767512;18.129324;1.137252;3307.0;0.00106214285714279;-0.00084157103854543;7.312550460103911e-05;0;1;0;1.13876;1.13029;1.13903;1.12884;16.723464;19.214039;22.933042;1.136444;1443.0;0.001281428571428513;-0.001699483748216268;-0.0004945288430304563;0;0;1
sell;2019.03.27 00:00:00;2.44;1.12842;1.62842;1.10718;0.5;0.02124;1.12701;1.12712;1.12724;1.12687;51.673478;41.134828;39.445423;1.127627;285.0;0.0004557142857142893;-0.0005689343746990705;-0.0006724081497076994;0;0;0;1.12701;1.12753;1.1277;1.12687;61.708742;48.569846;44.51982;1.127515;182.0;0.0004442857142857065;-0.0003718397580998456;-0.0005892192427571667;0;0;0
sell;2019.03.27 16:47:20;2.48;1.12589;1.62589;1.10465;0.5;0.02124;1.12478;1.12518;1.12537;1.12463;36.376136;40.192204;42.525483;1.126993;1699.0;0.0009557142857142975;-0.0004594098095473953;-0.0001527806528263938;0;0;1;1.12584;1.12518;1.12604;1.12438;41.607409;42.238086;43.561131;1.126733;1615.0;0.001005714285714276;-0.0005256421814370249;-0.0003747683208688831;0;0;1
sell;2019.03.28 10:34:25;2.57;1.12575;1.62575;1.10451;0.5;0.02124;1.12393;1.12458;1.12468;1.12388;44.188916;43.614532;44.636065;1.125301;1540.0;0.0005778571428571214;-0.0002597520691578481;-2.573669922149619e-06;0;0;1;1.12381;1.12521;1.12549;1.12339;58.637491;53.959188;52.364299;1.125305;1320.0;0.0006878571428571282;-8.276359654324494e-05;-9.938307694422015e-05;0;0;0
sell;2019.03.28 16:04:30;2.68;1.12367;1.62367;1.10243;0.5;0.02124;1.12172;1.12258;1.12313;1.12172;48.502972;42.728237;42.037075;1.123726;1829.0;0.001020000000000052;-0.0008237227525189628;-0.0007575612572374048;0;0;1;1.12172;1.12341;1.1237;1.12172;57.394189;49.72202;47.52826;1.123678;1447.0;0.001000000000000016;-0.0005174649689325683;-0.0007506585927094659;0;0;0
sell;2019.04.01 19:03:37;2.79;1.12079;1.62079;1.09955;0.5;0.02124;1.12094;1.12083;1.12114;1.1205;17.328629;27.662532;32.935689;1.122908;967.0;0.0007957142857143117;-0.0006446988820738575;-0.0003739045343222969;0;0;1;1.12094;1.12062;1.12114;1.12041;18.195271;27.086673;32.216379;1.122559;487.0;0.0006792857142857546;-0.0007712325635984563;-0.0005647497154563257;0;0;1
buy;2019.04.03 11:45:38;2.83;1.12399;0.62399;1.14523;0.5;0.02124;1.12402;1.12434;1.12448;1.12397;73.254639;69.7958;68.225202;1.122575;1123.0;0.0007149999999999888;0.0006073967678168479;0.0003885760418643545;1;1;1;1.12372;1.12434;1.12448;1.12321;80.77036099999999;74.677143;72.05391899999999;1.122868;855.0;0.0007835714285714225;0.0007636852368686498;0.000540875360978618;1;1;1
buy;2019.04.08 17:53:27;2.92;1.12384;0.62384;1.14508;0.5;0.02124;1.12672;1.12612;1.12675;1.12596;49.38548;60.83877;63.27542;1.125049;1260.0;0.0006007142857142713;0.0009049937545857478;0.0009045098751124601;1;1;1;1.12729;1.12612;1.12732;1.12596;48.68096;59.117084;61.821783;1.125374;609.0;0.0006092857142857084;0.0006928815147180245;0.0009041757859743279;1;1;0
buy;2019.04.09 12:22:04;2.97;1.12629;0.62629;1.14753;0.5;0.02124;1.12691;1.12713;1.12756;1.12686;52.313449;54.538519;55.106903;1.12671;797.0;0.00072357142857141;0.000265928152948014;0.0001900246409101549;1;1;1;1.12798;1.1274;1.12807;1.12662;58.855929;58.398621;58.050126;1.126835;671.0;0.0007214285714285546;0.0002981603364355934;0.0002529974470175586;1;1;1
sell;2019.04.10 16:09:39;3.01;1.12411;1.62411;1.10287;0.5;0.02124;1.1256;1.12367;1.12596;1.12343;11.301044;21.755771;27.7241;1.127026;2599.0;0.0008249999999999799;-0.0002669161288149091;0.0002053351673149665;0;1;0;1.1256;1.12412;1.12596;1.12294;25.917687;30.207882;33.729091;1.126693;1435.0;0.0009628571428571377;-0.0006597529773271216;-9.28558728194202e-05;0;0;1
buy;2019.04.11 02:05:04;3;1.12641;0.62641;1.14765;0.5;0.02124;1.12761;1.12752;1.12773;1.12748;58.307213;57.383515;55.926246;1.127355;87.0;0.0002799999999999782;0.0002082190552548102;0.000221174369723543;1;1;0;1.12761;1.12758;1.12778;1.12748;56.72567;57.305562;56.0648;1.127368;138.0;0.0002499999999999879;0.0002031326050453419;0.0002124606499545458;1;1;0
buy;2019.04.15 00:00:30;3;1.12971;0.62971;1.15095;0.5;0.02124;1.12977;1.13021;1.1304;1.12977;65.501946;52.644443;51.083153;1.130054;69.0;0.0002964285714286105;-0.0002216004132868932;-0.0003231751677512491;0;0;0;1.12977;1.13013;1.1304;1.12977;59.918995;51.35611;50.355363;1.129883;174.0;0.000310000000000017;-0.0001241369356674848;-0.0002527880681762476;0;0;0
sell;2019.04.18 21:20:23;3.18;1.12465;1.62465;1.10341;0.5;0.02124;1.12301;1.12275;1.12316;1.12271;29.996847;29.89643;30.37319;1.123856;427.0;0.0003957142857142769;-0.0006968261590396541;-0.0007314115657498466;0;0;0;1.12281;1.12301;1.12316;1.12271;42.205645;35.507038;33.910314;1.123668;432.0;0.0003557142857143162;-0.0005904838746790819;-0.000698911727839987;0;0;0
sell;2019.04.23 17:13:38;3.31;1.12137;1.62137;1.10013;0.5;0.02124;1.12104;1.12011;1.12119;1.1201;18.843855;23.01325;26.209334;1.124095;1538.0;0.0007907142857143269;-0.001119749612611187;-0.0005937580678264619;0;0;1;1.12104;1.12067;1.12119;1.11921;34.951114;31.661673;32.429516;1.123543;1186.0;0.0008935714285714456;-0.001282498769371365;-0.0009691695510110144;0;0;1
sell;2019.04.24 11:02:41;3.37;1.12025;1.62025;1.09901;0.5;0.02124;1.12161;1.12137;1.12181;1.11946;52.648596;49.821522;48.285647;1.121308;2439.0;0.0006664285714286071;-9.699946199503984e-05;-0.0001745495248774079;0;0;0;1.12161;1.1218;1.12195;1.11946;63.341344;56.293987;53.079492;1.121325;644.0;0.0007178571428571665;-1.138143090662069e-06;-0.0001228813371528266;0;0;0
sell;2019.04.25 05:42:16;3.65;1.11736;1.61736;1.09612;0.5;0.02124;1.11564;1.11595;1.11602;1.11558;69.613811;55.824414;49.440108;1.115339;359.0;0.000432142857142849;-0.0001463835030559579;-0.0003249669649694285;0;0;0;1.1154;1.11591;1.11602;1.11504;61.163618;53.191006;48.187437;1.115401;185.0;0.0004135714285714416;-4.059554405255739e-05;-0.0002157551316372063;0;0;0
buy;2019.04.29 09:03:31;3.7;1.116;0.616;1.13724;0.5;0.02124;1.11572;1.11648;1.11659;1.11572;83.71703599999999;74.349547;67.161964;1.115443;460.0;0.0002485714285714391;0.000248728841491852;0.0002268484613502412;1;1;1;1.11572;1.11593;1.11659;1.11559;54.252537;56.338017;56.142311;1.115543;414.0;0.0003178571428571473;0.0001936228745476054;0.0002205967040433632;1;1;0
buy;2019.04.30 13:25:38;3.87;1.11887;0.61887;1.14011;0.5;0.02124;1.12091;1.12053;1.12095;1.1204;55.978328;61.30908;61.698834;1.119274;534.0;0.0007321428571428319;0.0006820952177537531;0.000518632238933883;1;1;1;1.12102;1.12117;1.12138;1.1204;67.79685499999999;67.315967;66.150143;1.119554;618.0;0.0006464285714285716;0.0006890318602050804;0.0006626300705428074;1;1;1
buy;2019.05.01 12:21:17;3.97;1.12293;0.62293;1.14417;0.5;0.02124;1.12326;1.12366;1.12367;1.12319;83.336251;76.97861;71.929371;1.122149;305.0;0.0004464285714285777;0.0003909502471781678;0.0002510929667304298;1;1;1;1.1228;1.12343;1.12395;1.12279;67.252527;68.030699;66.226403;1.122355;275.0;0.0004592857142857255;0.0004780163439890295;0.0003501619677731091;1;1;1
sell;2019.05.02 00:00:00;4.04;1.12183;1.62183;1.10059;0.5;0.02124;1.11945;1.11963;1.11965;1.11945;35.52909;34.640084;36.674705;1.122397;106.0;0.001262142857142846;-0.001206297113198529;-0.001037296321370959;0;0;1;1.11945;1.11989;1.11994;1.11936;42.750093;37.584569;38.620281;1.121867;281.0;0.0009678571428571391;-0.001049140437358709;-0.001156121662047738;0;0;0
sell;2019.05.02 16:49:39;4.04;1.11975;1.61975;1.09851;0.5;0.02124;1.118;1.11854;1.11856;1.11758;33.335944;37.412863;39.657841;1.120332;1193.0;0.0007614285714285476;-0.0003997206137256182;-0.0001317006502044359;0;0;1;1.11964;1.11854;1.12019;1.11758;27.651614;33.672853;36.721754;1.11999;1203.0;0.0007800000000000027;-0.0006197498796594036;-0.0003153762255860182;0;0;1
sell;2019.05.09 11:11:28;4.04;1.11952;1.61952;1.09828;0.5;0.02124;1.11865;1.11797;1.11887;1.11789;16.152603;27.739788;33.717096;1.119266;1646.0;0.0005807142857142669;-5.586608426666473e-05;0.000114565283295938;0;1;0;1.11865;1.11886;1.11895;1.11733;46.191187;45.30011;45.87743;1.119218;998.0;0.0007221428571428133;-0.000181975391948086;1.725067351182326e-05;0;1;0
sell;2019.05.15 15:16:11;4.04;1.1205;1.6205;1.09926;0.5;0.02124;1.11828;1.11838;1.11864;1.11824;27.534232;30.461724;33.092957;1.120173;1073.0;0.0005885714285714298;-0.0006556058839366496;-0.0003979636541596932;0;0;1;1.11808;1.11836;1.11924;1.11786;27.738262;30.299887;32.789754;1.119882;1453.0;0.0006557142857142986;-0.000685223359936149;-0.0005624908420522474;0;0;1
sell;2019.05.16 16:11:25;4.04;1.12073;1.62073;1.09949;0.5;0.02124;1.11876;1.11888;1.1192;1.11845;18.580283;27.145723;32.221039;1.12071;1266.0;0.0006000000000000286;-0.0004415547117115892;-0.0001703899634364685;0;0;1;1.11876;1.11862;1.11926;1.11829;19.301368;26.604253;31.358436;1.120492;935.0;0.0006150000000000158;-0.0005832382138852843;-0.0003382430855076567;0;0;1
sell;2019.05.16 22:30:38;4.05;1.11865;1.61865;1.09741;0.5;0.02124;1.11707;1.11735;1.1174;1.11705;45.416301;39.737287;38.494628;1.117769;284.0;0.0004142857142857159;-0.0005131071648658558;-0.0005342045131466834;0;0;0;1.11702;1.11768;1.11771;1.11662;46.583968;41.7002;40.07113;1.117618;91.0;0.0003892857142857266;-0.0004077367696317946;-0.0004946662427979466;0;0;0
sell;2019.05.23 08:03:41;4.05;1.116;1.616;1.09476;0.5;0.02124;1.1149;1.11471;1.1149;1.11466;22.551981;32.052732;36.648512;1.115177;225.0;0.0002057142857142851;-0.0001558019249656706;-0.0001375182767655665;0;0;1;1.1149;1.11496;1.11503;1.11466;53.620088;45.494766;44.179304;1.115087;220.0;0.0001764285714285534;-0.000148492070120243;-0.0001472634012534796;0;0;1
sell;2019.05.23 16:45:36;4.07;1.11392;1.61392;1.09268;0.5;0.02124;1.11145;1.11327;1.11347;1.11145;53.396339;48.251909;46.399845;1.113468;2284.0;0.0007842857142857291;-0.0004627845607252379;-0.0002958230415855682;0;0;1;1.11354;1.11327;1.11369;1.11064;66.213673;59.096904;55.810811;1.113527;1750.0;0.0009664285714285901;-5.10773108690632e-05;-0.000280126655949622;0;0;0
sell;2019.05.29 18:24:41;4.06;1.11362;1.61362;1.09238;0.5;0.02124;1.11292;1.1128;1.11304;1.11243;21.342949;27.957927;30.842427;1.114906;1443.0;0.0007964285714285865;-0.0005615886627612365;-0.0003698660296975086;0;0;1;1.1142;1.11352;1.11427;1.11243;38.363063;37.592142;37.917061;1.114704;562.0;0.0008014285714285875;-0.0005817034891166806;-0.0004502290932175527;0;0;1
sell;2019.05.30 16:59:43;4.06;1.11477;1.61477;1.09353;0.5;0.02124;1.11182;1.11236;1.11236;1.1117;35.202066;37.882151;39.962478;1.113432;1310.0;0.0005692857142857319;-0.0002884736627837281;-7.716440747715289e-05;0;0;1;1.11312;1.11236;1.1133;1.1116;40.733657;40.919238;42.026463;1.113336;846.0;0.0006121428571428701;-0.0003309457646785141;-0.000189190915534619;0;0;1
buy;2019.06.04 09:58:32;4.43;1.12427;0.62427;1.14551;0.5;0.02124;1.12594;1.12641;1.12707;1.12591;77.31100600000001;70.944479;68.650198;1.125199;995.0;0.0005714285714285718;0.0003437478779884096;0.0002364225242628299;1;1;1;1.12533;1.12641;1.12707;1.12474;67.689035;67.416961;66.815567;1.125429;896.0;0.0006942857142857264;0.0005407052778170218;0.0003360682585431209;1;1;1
buy;2019.06.05 15:25:21;4.77;1.12903;0.62903;1.15027;0.5;0.02124;1.12571;1.12929;1.13064;1.12564;73.82125600000001;66.364874;63.915353;1.127025;3745.0;0.001114285714285734;6.452648968613417e-05;0.0001525464611664365;1;1;0;1.12557;1.12925;1.13064;1.1253;73.362775;66.35736799999999;63.980449;1.127325;1466.0;0.001212857142857174;0.000498324470289635;0.0001346652058757617;1;1;1
sell;2019.06.06 00:00:00;4.8;1.12389;1.62389;1.10265;0.5;0.02124;1.12198;1.12226;1.12232;1.12195;37.118389;34.079313;35.64362;1.123299;152.0;0.0004600000000000155;-0.0008512378338318971;-0.0009562346957681182;0;0;0;1.12198;1.12263;1.1228;1.12195;52.77704;40.539498;39.381424;1.122944;526.0;0.0004807142857142942;-0.000695414063649924;-0.0008640246269522393;0;0;0
buy;2019.06.06 15:53:27;4.97;1.12796;0.62796;1.1492;0.5;0.02124;1.12869;1.12859;1.1309;1.1276;79.905343;75.572982;72.575665;1.124131;3977.0;0.001490000000000023;0.001065623456808495;0.0003837054181870875;1;1;1;1.12642;1.12859;1.1309;1.12595;44.624013;51.547363;53.174273;1.124552;2609.0;0.001942857142857182;0.0009563123024676212;0.0006973930695724105;1;1;1
buy;2019.06.10 00:00:00;5.34;1.13135;0.63135;1.15259;0.5;0.02124;1.13241;1.13242;1.13255;1.13217;29.361438;45.923367;51.925839;1.133503;203.0;0.0005450000000000172;0.0003407061321916149;0.0006064062600608262;1;1;0;1.13241;1.13272;1.13273;1.13214;44.164698;49.719984;53.67273;1.133323;132.0;0.0004728571428571631;0.0001344710324964193;0.0004022550312388481;1;1;0
sell;2019.06.13 00:00:00;5.44;1.13118;1.63118;1.10994;0.5;0.02124;1.12859;1.12889;1.1289;1.12853;45.991206;38.310457;37.758764;1.129678;233.0;0.0003771428571428533;-0.000665853920327919;-0.0008061716992189357;0;0;0;1.12859;1.12912;1.12919;1.12853;56.527656;42.686121;40.408874;1.129335;268.0;0.000343571428571411;-0.000506305417351971;-0.0006945208215726651;0;0;0
sell;2019.06.13 17:01:36;5.51;1.1291;1.6291;1.10786;0.5;0.02124;1.12721;1.12751;1.12812;1.1272;31.984457;34.487541;36.699026;1.128774;1354.0;0.0006471428571428618;-0.0004954001035171185;-0.0003077748903188903;0;0;1;1.12721;1.12716;1.12812;1.12682;29.770265;32.849543;35.241956;1.128498;1201.0;0.0006899999999999999;-0.0005468352198645388;-0.0004333886575041929;0;0;1
sell;2019.06.14 15:50:27;5.53;1.12374;1.62374;1.1025;0.5;0.02124;1.12429;1.12313;1.1248;1.12311;17.929399;25.29071;28.981487;1.12694;2316.0;0.0008164285714285746;-0.0007289406342447791;-0.0004187533788628139;0;0;1;1.12589;1.12313;1.12676;1.12311;32.525764;33.678676;35.200886;1.126437;1859.0;0.0008642857142856979;-0.000948930511089241;-0.0006101584121987244;0;0;1
buy;2019.06.20 00:00:00;5.72;1.11955;0.61955;1.14079;0.5;0.02124;1.12254;1.12271;1.12305;1.1225;48.00794;53.417746;55.081719;1.122391;156.0;0.001263571428571412;0.0004191084761928643;0.0006485755249995825;1;1;0;1.12254;1.12288;1.12305;1.1225;52.273805;54.979559;56.096353;1.122519;33.0;0.0008471428571428401;0.0003406760070681081;0.0004964683742989946;1;1;0
buy;2019.06.21 04:49:30;5.78;1.12988;0.62988;1.15112;0.5;0.02124;1.12975;1.13064;1.13066;1.12975;82.011247;69.542472;63.177823;1.12933;747.0;0.0003678571428571422;0.0001956473766804301;9.381706192711849e-05;1;1;1;1.12944;1.13064;1.13066;1.12923;68.195589;63.148205;59.652142;1.129448;625.0;0.0004235714285714439;0.0002804791366581849;0.000158135167275492;1;1;1
buy;2019.06.21 19:20:18;6.04;1.13245;0.63245;1.15369;0.5;0.02124;1.13407;1.13284;1.13435;1.13253;55.470296;58.555379;58.923771;1.131904;1405.0;0.0009764285714285765;0.0005903354812044626;0.0005179755937213583;1;1;1;1.13284;1.13406;1.13436;1.13183;72.281536;68.732539;66.608711;1.132246;1196.0;0.001112142857142879;0.0007372253174702248;0.0005557584038343767;1;1;1
sell;2019.06.26 04:05:40;6.51;1.13627;1.63627;1.11503;0.5;0.02124;1.1362;1.13591;1.13622;1.13545;28.215766;36.070478;38.698903;1.136735;893.0;0.0004300000000000098;-0.000264731876710167;-0.0002350902254207817;0;0;1;1.1362;1.13575;1.13622;1.13534;32.669753;36.547199;38.629564;1.136555;386.0;0.0004092857142857311;-0.000360314404712625;-0.0002533617016259514;0;0;1
buy;2019.06.27 12:46:31;6.68;1.13654;0.63654;1.15778;0.5;0.02124;1.13724;1.13751;1.13815;1.1372;72.889847;65.152067;60.459429;1.136196;1528.0;0.0006578571428571383;0.0002928155070283101;0.000179851075829239;1;1;1;1.13715;1.13751;1.13815;1.13665;68.964118;64.46328200000001;60.989909;1.13636;795.0;0.0006442857142857319;0.0003151379423733669;0.0002486263627549899;1;1;1
sell;2019.07.01 04:45:42;6.85;1.13506;1.63506;1.11382;0.5;0.02124;1.13505;1.13514;1.13515;1.13479;23.494662;31.430439;35.597428;1.136328;650.0;0.0003728571428570949;-0.0004705598922123411;-0.0003305310701426257;0;0;1;1.13538;1.13514;1.13552;1.13479;33.2501;35.189848;37.75601;1.136133;242.0;0.000356428571428511;-0.0004557227264836428;-0.0004115554903463098;0;0;1
sell;2019.07.02 22:55:05;7.36;1.12951;1.62951;1.10827;0.5;0.02124;1.12902;1.12832;1.12902;1.12821;26.01193;35.82179;40.014766;1.129646;1099.0;0.0006599999999999935;-0.0002477729967103048;-7.37530096547261e-05;0;0;1;1.12904;1.12832;1.12969;1.12821;43.063845;43.180876;44.750237;1.12952;185.0;0.0005114285714285749;-0.0003109470435198602;-0.000194726069786107;0;0;1
sell;2019.07.04 00:00:00;7.47;1.12925;1.62925;1.10801;0.5;0.02124;1.12756;1.12781;1.12781;1.12753;50.989596;46.267237;45.963147;1.127846;97.0;0.0002078571428571399;-0.000190078291459006;-0.0002117113715632537;0;0;0;1.12756;1.1279;1.1279;1.12753;56.800531;48.45698;47.199755;1.12783;38.0;0.0001785714285714241;-0.0001346831350688138;-0.0001892570049214453;0;0;0
sell;2019.07.05 16:39:27;7.61;1.12235;1.62235;1.10111;0.5;0.02124;1.12288;1.12197;1.12293;1.12192;18.655414;21.94342;23.586632;1.125724;1172.0;0.0009492857142857157;-0.00102690987387799;-0.0005770378534430297;0;0;1;1.1244;1.12192;1.1244;1.12151;19.991218;22.128401;23.493369;1.12511;1059.0;0.0009949999999999837;-0.001375935593362909;-0.0008734672654442461;0;0;1
sell;2019.07.08 19:17:59;7.95;1.12281;1.62281;1.10157;0.5;0.02124;1.12096;1.12129;1.12156;1.12095;46.698188;43.766461;43.575051;1.121682;320.0;0.000480714285714294;-0.0003123931333508523;-0.0002826421891194866;0;0;1;1.12082;1.12146;1.12168;1.12068;54.668197;48.718506;47.115047;1.121593;142.0;0.0004485714285714642;-0.0002124919106494261;-0.0002735935861950116;0;0;0
buy;2019.07.10 15:31:29;7.93;1.12346;0.62346;1.1447;0.5;0.02124;1.12138;1.1245;1.12463;1.12138;78.278809;72.440248;69.90552700000001;1.121895;3978.0;0.0007050000000000346;0.0002954993775514669;0.0002122585056629443;1;1;1;1.12135;1.12499;1.12552;1.12127;78.312478;73.25433700000001;70.856758;1.122358;1094.0;0.000767857142857161;0.0007564429164617081;0.0003209352784413524;1;1;1
sell;2019.07.16 13:19:18;8.05;1.12406;1.62406;1.10282;0.5;0.02124;1.12309;1.12324;1.12326;1.12275;19.62794;23.490145;27.135315;1.124977;439.0;0.000540714285714259;-0.0006721966822469394;-0.0005046125789222235;0;0;1;1.12317;1.12231;1.12328;1.12175;9.78112;16.168231;20.756366;1.124574;555.0;0.0005607142857142473;-0.0008353500354236765;-0.0006338975925357943;0;0;1
buy;2019.07.18 00:00:00;8.17;1.12087;0.62087;1.14211;0.5;0.02124;1.12232;1.12266;1.12266;1.12232;62.994857;57.348291;56.258788;1.122538;122.0;0.0003007142857142566;8.556772122747525e-05;9.628791799190623e-05;1;1;0;1.12232;1.12269;1.12287;1.12232;59.048856;56.508841;55.865157;1.122558;108.0;0.0002864285714285598;0.0001151148226865573;9.122622836239466e-05;1;1;1
sell;2019.07.23 14:58:42;8.56;1.11855;1.61855;1.09731;0.5;0.02124;1.11814;1.11726;1.11817;1.11717;27.909329;31.644087;33.054172;1.118437;587.0;0.0004278571428571858;-0.0003811322412501372;-0.0004132660255008923;0;0;0;1.11812;1.11726;1.11847;1.11717;25.385238;30.13595;31.956944;1.118226;437.0;0.0004500000000000611;-0.0004585635740259608;-0.0004046295755033159;0;0;1
sell;2019.07.24 10:46:29;8.9;1.11369;1.61369;1.09245;0.5;0.02124;1.1134;1.11387;1.11394;1.11308;37.057242;40.376734;41.20518;1.114519;1203.0;0.000544285714285695;-0.0001062033342094093;-8.62450963195023e-06;0;0;1;1.11521;1.11387;1.11553;1.11269;35.215466;38.664777;39.78861;1.114428;671.0;0.0006164285714285331;-0.0002289128032211263;-5.01923781837934e-05;0;0;1
sell;2019.07.25 11:01:30;9.04;1.11492;1.61492;1.09368;0.5;0.02124;1.11273;1.11298;1.11309;1.11219;39.324341;38.008049;39.519949;1.11341;717.0;0.0003542857142857506;-0.0002138206759780825;-0.0001395036303207768;0;0;1;1.11273;1.11289;1.1134;1.11219;37.985659;38.580474;39.830178;1.113329;316.0;0.0004035714285714547;-0.000179938652509426;-0.0001717563387755636;0;0;1
buy;2019.07.25 14:45:41;9.02;1.11455;0.61455;1.13579;0.5;0.02124;1.11384;1.1114;1.11608;1.11131;23.336929;30.928795;33.940066;1.113287;4176.0;0.0008114285714285575;-2.768979271405847e-05;2.020760551149725e-05;0;1;0;1.11397;1.1114;1.11608;1.11131;42.415377;42.171601;42.474151;1.113048;3252.0;0.001042142857142848;-0.0003691092159414655;-3.528697498023928e-05;0;0;1
sell;2019.07.31 21:02:39;9.57;1.11122;1.61122;1.08998;0.5;0.02124;1.11358;1.1121;1.11377;1.10863;31.192545;33.932785;35.235556;1.113603;4581.0;0.0008785714285714102;-0.0004362781991340547;-0.0005122007407350738;0;0;0;1.11358;1.10847;1.11377;1.10641;11.671394;17.810473;21.322362;1.113004;4601.0;0.001327857142857165;-0.001032454563461682;-0.0005862894409913311;0;0;1
sell;2019.07.31 21:40:01;9.59;1.10869;1.60869;1.08745;0.5;0.02124;1.1111;1.10922;1.11147;1.10778;13.756939;19.924885;23.326116;1.11323;3716.0;0.001178571428571425;-0.0007950953268665018;-0.0005382045059115976;0;0;1;1.11358;1.10847;1.11377;1.10641;12.755807;18.324967;21.639074;1.112504;2228.0;0.001562142857142892;-0.001330838377380905;-0.000742675767914618;0;0;1
buy;2019.08.05 17:22:15;10.51;1.11796;0.61796;1.1392;0.5;0.02124;1.11967;1.11951;1.12;1.11909;75.329677;74.35946199999999;73.197858;1.116546;1724.0;0.0008350000000000296;0.001237374332458074;0.001192902868839198;1;1;1;1.11773;1.11852;1.12;1.11767;52.884944;61.15399;63.563653;1.117103;1957.0;0.0008707142857143273;0.001121084435491193;0.001165016582212443;1;1;0
buy;2019.08.06 04:16:20;11.03;1.12069;0.62069;1.14193;0.5;0.02124;1.12386;1.12358;1.12396;1.12307;54.358443;64.38115500000001;66.293448;1.121883;1574.0;0.0006771428571428679;0.001136175503950509;0.001181345097274009;1;1;0;1.12427;1.12257;1.12427;1.12235;40.238828;54.00782;58.7306;1.122229;514.0;0.0007378571428571707;0.0007668196140215855;0.001120578587355041;1;1;0
buy;2019.08.08 11:25:38;11.35;1.12128;0.62128;1.14252;0.5;0.02124;1.12194;1.12257;1.12277;1.12192;83.23563;72.34311099999999;65.81492;1.121145;842.0;0.0005700000000000234;0.0002882702808848503;9.610287187690757e-05;1;1;1;1.12171;1.12144;1.12277;1.12138;52.632062;54.988163;54.612128;1.121232;648.0;0.0006814285714285635;0.0002646548441151975;0.0001931287384044832;1;1;1
sell;2019.08.08 14:37:12;11.38;1.12085;1.62085;1.09961;0.5;0.02124;1.12034;1.11914;1.12034;1.11913;18.618954;28.87002;34.498285;1.121087;919.0;0.0006271428571428584;-0.0003220582307061903;-3.885456679149379e-05;0;0;1;1.12004;1.1188;1.12041;1.11858;28.770629;32.976601;36.643757;1.12086;704.0;0.0005750000000000245;-0.0005300354347270719;-0.0002506613814786629;0;0;1
buy;2019.08.08 17:38:44;11.35;1.12128;0.62128;1.14252;0.5;0.02124;1.11991;1.11998;1.12324;1.11969;50.077372;48.097633;47.614902;1.1204;2070.0;0.00139928571428573;-0.0002630683407101042;-0.0003779056126020504;0;0;0;1.11966;1.11997;1.12324;1.11931;61.461506;55.534314;53.445899;1.120263;908.0;0.001494285714285702;-2.030277585607365e-05;-0.0002580266734045721;0;0;0
sell;2019.08.12 10:46:36;11.41;1.11711;1.61711;1.09587;0.5;0.02124;1.11717;1.11677;1.11732;1.1167;6.641006;13.955592;20.343793;1.120237;1165.0;0.0005800000000000095;-0.0007438018380214739;-0.0001668232593932937;0;0;1;1.12013;1.11677;1.12017;1.1167;21.69005;22.469862;26.10692;1.11978;906.0;0.0006571428571428645;-0.001010166184033601;-0.0005202337255347879;0;0;1
sell;2019.08.14 18:23:30;12.25;1.1143;1.6143;1.09306;0.5;0.02124;1.11487;1.11426;1.11491;1.11379;26.888527;31.093215;34.150149;1.11709;1061.0;0.0009921428571428076;-0.0008919025791493951;-0.0004654111826068722;0;0;1;1.11485;1.11435;1.1152;1.11379;26.54285;30.726391;33.686278;1.116648;820.0;0.000964999999999963;-0.0009741141800501119;-0.000773956477482101;0;0;1
sell;2019.08.15 16:43:14;12.49;1.11548;1.61548;1.09424;0.5;0.02124;1.11416;1.11299;1.11428;1.11247;21.887025;30.277685;34.931235;1.114795;2845.0;0.0008135714285714147;-0.000273331029269297;-1.323972433255726e-05;0;0;1;1.11419;1.11122;1.11447;1.11073;10.236975;18.42903;23.806233;1.114337;2116.0;0.001055714285714304;-0.0008618881993598393;-0.0002889509913417986;0;0;1
sell;2019.08.16 11:01:59;12.54;1.10862;1.60862;1.08738;0.5;0.02124;1.10857;1.10832;1.10866;1.10824;14.188439;24.457963;29.986586;1.109883;874.0;0.0004964285714285737;-0.0003839434238004369;-0.0001361140620503934;0;0;1;1.10857;1.10844;1.10869;1.10815;22.924593;28.695714;32.553827;1.109728;725.0;0.0005021428571428334;-0.0004877809055336968;-0.0002745813255660473;0;0;1
sell;2019.08.22 03:56:27;12.95;1.10978;1.60978;1.08854;0.5;0.02124;1.10882;1.10857;1.10882;1.10841;26.339456;38.948366;41.996653;1.108752;237.0;0.0001957142857142526;-8.852396874181601e-05;-8.362820915100961e-05;0;0;1;1.10903;1.10857;1.10905;1.10841;47.100542;45.956041;45.848183;1.108765;153.0;0.0001992857142857046;-0.0001052321775338871;-8.162156542350738e-05;0;0;1
buy;2019.08.22 11:06:17;12.92;1.10984;0.60984;1.13108;0.5;0.02124;1.11048;1.11061;1.11131;1.11043;87.08152;76.3603;69.466872;1.108698;1600.0;0.0005771428571428168;0.0003221676611648849;-8.709395452961908e-05;1;0;0;1.11048;1.10987;1.11131;1.10981;59.77694;61.262986;59.108756;1.108852;692.0;0.0006442857142856855;0.0004269672443510952;0.0001388547253046197;1;1;1
sell;2019.08.22 12:26:35;12.95;1.10978;1.60978;1.08854;0.5;0.02124;1.10915;1.10854;1.10931;1.10832;33.28954;43.147489;45.497582;1.10885;1056.0;0.0007499999999999818;0.0002584676040224831;0.0002617670467846163;1;1;0;1.10986;1.10821;1.10992;1.1072;27.428118;37.467081;40.744931;1.108757;825.0;0.0008707142857142971;-4.323323292765302e-05;0.0002604108953400417;0;1;0
sell;2019.08.28 17:57:39;42.33;1.10783;1.60783;1.09947;0.5;0.00836;1.10793;1.10758;1.10835;1.10732;28.711225;34.361954;37.38534;1.108641;1836.0;0.0005778571428571384;-0.0002939945990561021;-0.0002339899520855755;0;0;1;1.10817;1.10758;1.10836;1.10732;44.522754;43.620353;43.863873;1.108545;754.0;0.0005892857142857055;-0.0002311988202674531;-0.0002496327746936075;0;0;0
sell;2019.08.30 09:31:02;43.13;1.104;1.604;1.09564;0.5;0.00836;1.10365;1.10366;1.104;1.10356;21.492093;28.037976;31.593787;1.104664;845.0;0.0003271428571428435;-0.0003094968191947878;-0.0002695841176919281;0;0;1;1.10481;1.10377;1.10516;1.10352;35.414224;34.925522;35.974136;1.104459;1140.0;0.0004214285714285252;-0.00034484366152987;-0.0002766077309449269;0;0;1
sell;2019.08.30 21:18:04;45.95;1.10014;1.60014;1.09178;0.5;0.00836;1.09731;1.0973;1.09768;1.09728;27.441756;22.754978;23.096643;1.100766;504.0;0.0009628571428571385;-0.001693224092996548;-0.001579827181590686;0;0;1;1.09712;1.09768;1.09798;1.09693;48.336902;34.48707;31.651946;1.100093;944.0;0.0007050000000000035;-0.001421628916470796;-0.001625223540015729;0;0;0
buy;2019.09.04 10:49:38;45.89;1.09858;0.59858;1.10694;0.5;0.00836;1.09865;1.09922;1.09941;1.09846;76.90187899999999;71.778251;67.890603;1.097783;938.0;0.0005171428571428352;0.0004017719429734168;0.0002197153214095961;1;1;1;1.09809;1.09922;1.09941;1.09762;67.74688999999999;66.382096;64.41197699999999;1.097948;602.0;0.0006257142857142614;0.0004415152315604409;0.0003303372114619695;1;1;1
buy;2019.09.04 13:01:13;47.3;1.10101;0.60101;1.10937;0.5;0.00836;1.102;1.10169;1.10213;1.10151;78.183296;76.65888200000001;74.03770799999999;1.09882;976.0;0.0009007142857143182;0.001033132498957423;0.0006912483941084794;1;1;1;1.102;1.10165;1.10213;1.10133;71.36281;72.856123;71.461617;1.0993;541.0;0.0008271428571428836;0.001065941183383989;0.0009061572882848802;1;1;1
buy;2019.09.05 16:56:35;50;1.10731;0.60731;1.11567;0.5;0.00836;1.10756;1.10812;1.10847;1.1075;86.107882;79.539844;75.595381;1.105258;1375.0;0.0007035714285714703;0.0009581742713127284;0.0008003327438858778;1;1;1;1.10597;1.10812;1.10847;1.10582;38.592034;48.762899;52.370729;1.105475;1164.0;0.0008764285714286036;0.0006250262510163473;0.0007894102641824469;1;1;0
sell;2019.09.11 13:53:36;50;1.10139;1.60139;1.09303;0.5;0.00836;1.1017;1.10075;1.1017;1.10068;10.301371;18.156444;23.974784;1.103505;1042.0;0.000535000000000016;-0.0008463410525665349;-0.000674012214656273;0;0;1;1.10199;1.10075;1.10219;1.10068;12.261123;18.291641;23.483892;1.102959;689.0;0.0005385714285714523;-0.0009830466441451691;-0.000794517422388807;0;0;1
buy;2019.09.13 09:30:41;50;1.10864;0.60864;1.117;0.5;0.00836;1.1083;1.10865;1.10913;1.10828;87.64270500000001;78.06585800000001;70.298756;1.106857;2136.0;0.0004150000000000227;0.0004693551306507171;0.0002887313427924066;1;1;1;1.10706;1.10956;1.10965;1.10677;79.530235;77.766319;73.180396;1.107321;2468.0;0.000636428571428554;0.0009081029518775985;0.0004711201992527993;1;1;1
sell;2019.09.16 16:04:36;50;1.10283;1.60283;1.09447;0.5;0.00836;1.10266;1.10216;1.1027;1.10213;13.294488;19.145773;23.439824;1.105145;1252.0;0.0006864285714285958;-0.001118077681214968;-0.0009774300876507439;0;0;1;1.10266;1.10118;1.1027;1.10114;10.503742;16.272669;20.663535;1.10452;1120.0;0.0006571428571428643;-0.001226822516843251;-0.001090007309266349;0;0;1
sell;2019.09.16 17:55:47;50;1.10004;1.60004;1.09168;0.5;0.00836;1.10095;1.09972;1.10096;1.09934;17.929488;19.64769;21.984516;1.103565;2070.0;0.0007921428571428764;-0.001392274959807427;-0.001219219561642761;0;0;1;1.10119;1.09972;1.10173;1.09934;40.407309;34.650929;33.293489;1.102892;1119.0;0.0008842857142857187;-0.001384195498677521;-0.001313575441438457;0;0;1
sell;2019.09.20 17:19:40;50;1.10119;1.60119;1.09283;0.5;0.00836;1.10117;1.10121;1.10157;1.10081;20.158166;24.582508;28.450297;1.103615;972.0;0.0006749999999999816;-0.000969286959999982;-0.0008233128495562155;0;0;1;1.10195;1.10111;1.10224;1.10046;29.242042;28.26386;30.610326;1.103114;2849.0;0.000795714285714281;-0.0009784442797977633;-0.0009210938062030123;0;0;1
sell;2019.09.25 17:56:05;50;1.09594;1.59594;1.08758;0.5;0.00836;1.09604;1.09597;1.0964;1.09535;12.409878;20.430746;25.199772;1.09872;2036.0;0.0007457142857143184;-0.0007839088930763349;-0.0005025900196665444;0;0;1;1.09859;1.09597;1.09876;1.09535;9.18816;17.264882;22.328227;1.098176;1047.0;0.0006928571428571623;-0.001046782436706195;-0.0006837561400387547;0;0;1
buy;2019.10.17 12:38:39;50;1.11245;0.61245;1.12081;0.5;0.00836;1.11001;1.11264;1.11398;1.10983;90.71266799999999;83.342063;78.999995;1.10798;8666.0;0.0009749999999999468;0.0007347727904987167;0.0002060077437731703;1;1;1;1.10897;1.11197;1.11398;1.10896;73.158444;72.234808;70.53165199999999;1.108485;2013.0;0.001192142857142799;0.001147178035533436;0.0005456223129626995;1;1;1
buy;2019.10.18 14:32:16;50;1.11402;0.61402;1.12238;0.5;0.00836;1.11431;1.11422;1.11453;1.11421;76.04197499999999;69.87539099999999;65.960509;1.112677;1044.0;0.0005378571428571444;0.0003995760156247918;0.0002236345770262102;1;1;1;1.11318;1.11429;1.11465;1.11298;77.527007;71.017116;66.90522199999999;1.112912;574.0;0.000497857142857152;0.0005049127023764033;0.0003280837032543741;1;1;1
sell;2019.10.23 12:57:24;50;1.11159;1.61159;1.10323;0.5;0.00836;1.1114;1.11116;1.11171;1.111;26.19214;33.78782;36.970676;1.112057;730.0;0.0005464285714285502;-0.0001900352205699285;-6.890650005817016e-05;0;0;1;1.11181;1.11116;1.11221;1.111;38.520139;39.87855;40.91113;1.112004;1130.0;0.0005642857142856831;-0.0002471049224554989;-0.0001407406676635864;0;0;1
sell;2019.10.25 16:45:41;50;1.10914;1.60914;1.10078;0.5;0.00836;1.10934;1.10938;1.10939;1.10871;23.662639;30.022987;34.684864;1.111057;1276.0;0.0005257142857143353;-0.000395030448102629;-0.0001769698629062467;0;0;1;1.10997;1.10938;1.11051;1.10871;17.348102;25.315167;30.689304;1.110765;805.0;0.0005571428571429063;-0.000555735639954591;-0.0003436038345089302;0;0;1
buy;2019.10.30 21:01:39;50;1.11256;0.61256;1.12092;0.5;0.00836;1.11259;1.1136;1.11424;1.11226;64.15812099999999;60.207457;58.633056;1.111658;3429.0;0.001124285714285735;0.0001220101918903982;8.863576280253036e-05;1;1;1;1.11259;1.11439;1.11508;1.11226;67.20969100000001;62.867217;60.979005;1.112069;843.0;0.001192142857142879;0.0005663433957485697;0.0001674695481815642;1;1;1
sell;2019.11.05 16:08:16;50;1.11014;1.61014;1.10178;0.5;0.00836;1.10992;1.10883;1.10996;1.10882;13.08804;19.60224;23.881112;1.111961;932.0;0.000783571428571437;-0.00083494256907235;-0.0005689877266513445;0;0;1;1.10992;1.10885;1.10996;1.10858;22.565645;24.872311;27.458503;1.11144;1048.0;0.0007292857142857318;-0.0009634931601310015;-0.000739511855550963;0;0;1
sell;2019.11.05 18:07:35;50;1.10732;1.60732;1.09896;0.5;0.00836;1.1072;1.10713;1.10756;1.10656;19.675371;21.239323;23.615144;1.110324;1319.0;0.0008578571428571779;-0.001341154589173499;-0.001085456656518711;0;0;1;1.1072;1.10696;1.10756;1.10638;27.029916;24.522741;25.64758;1.109623;559.0;0.0008421428571428844;-0.001361490520871866;-0.001248747846401029;0;0;1
sell;2019.11.08 13:10:36;50;1.10339;1.60339;1.09503;0.5;0.00836;1.10347;1.1032;1.10349;1.10299;22.596773;28.838778;32.500579;1.104664;810.0;0.0005821428571428301;-0.0003584956034798914;-0.0001898045047776166;0;0;1;1.10347;1.10289;1.10349;1.10258;18.973415;26.116254;30.236559;1.104447;788.0;0.0005414285714285632;-0.0005104599807901344;-0.0003173552696484016;0;0;1
buy;2019.11.15 13:27:15;50;1.10297;0.60297;1.11133;0.5;0.00836;1.10303;1.1033;1.10342;1.10293;80.721655;68.736289;64.10872500000001;1.102209;498.0;0.0004607142857143511;0.0001508074115710301;-4.276183867134357e-05;1;0;0;1.10264;1.10319;1.10342;1.10256;56.690869;57.082954;56.329535;1.102273;778.0;0.0004378571428571854;0.000220328831876726;7.229404444426147e-05;1;1;1
buy;2019.11.18 18:16:38;50;1.10841;0.60841;1.11677;0.5;0.00836;1.10875;1.10871;1.10899;1.10869;87.16194400000001;76.72524300000001;71.47062200000001;1.106443;1005.0;0.0005764285714285542;0.0005544506628198942;0.000186804732231428;1;1;1;1.10806;1.10791;1.10899;1.10786;63.085656;63.879078;62.542956;1.106652;353.0;0.0005414285714285788;0.0005810875483609479;0.0003874000600892316;1;1;1
sell;2019.11.22 16:46:25;50;1.10499;1.60499;1.09663;0.5;0.00836;1.10564;1.10462;1.10564;1.1043;25.45617;35.030063;38.239991;1.10581;1580.0;0.0005485714285714189;-0.0002358483510866982;-0.000182256986150621;0;0;1;1.10581;1.10462;1.10596;1.1043;20.108886;29.230356;33.262924;1.105537;967.0;0.0005478571428571285;-0.0004765498262935264;-0.0002537513171495274;0;0;1
sell;2019.11.29 15:10:05;50;1.09897;1.59897;1.09061;0.5;0.00836;1.09964;1.0982;1.09964;1.09811;18.756386;24.035834;27.201004;1.10035;1283.0;0.0004742857142856938;-0.0004299737315744956;-0.0002703014750433282;0;0;1;1.09964;1.09925;1.09964;1.09811;44.994748;41.227453;40.720818;1.100129;641.0;0.0005042857142856842;-0.0004819626297571933;-0.0003720444669554766;0;0;1
buy;2019.12.02 17:00:42;50;1.10554;0.60554;1.1139;0.5;0.00836;1.10444;1.10619;1.10665;1.1044;92.558009;84.674575;79.602478;1.102156;4248.0;0.0007042857142856779;0.0008840568602681564;0.000386000254593641;1;1;1;1.10444;1.10706;1.10766;1.1044;84.106526;81.146688;77.936397;1.102818;1759.0;0.0008085714285714093;0.001353887170371992;0.0007849146700646353;1;1;1
buy;2019.12.04 16:00:00;50;1.10994;0.60994;1.1183;0.5;0.00836;1.1107;1.11049;1.11091;1.11028;85.408185;77.11939;71.91052999999999;1.107885;958.0;0.0006292857142857096;0.0005523534297922073;8.914676753747611e-05;1;1;1;1.1107;1.10998;1.11091;1.10992;66.329701;67.143669;64.957189;1.108147;1145.0;0.0006764285714285742;0.0007383444957524965;0.000371671580971537;1;1;1
sell;2019.12.06 17:01:00;50;1.10645;1.60645;1.09809;0.5;0.00836;1.10573;1.10612;1.10616;1.10529;25.409892;26.625616;28.289321;1.108978;1817.0;0.0008728571428571319;-0.0009243488884236317;-0.0005584135466698914;0;0;1;1.10573;1.10503;1.10655;1.10397;23.027369;24.387476;26.047635;1.108385;1530.0;0.001036428571428554;-0.001212749774961663;-0.0008265449301613695;0;0;1
buy;2019.12.13 00:27:31;50;1.11554;0.61554;1.1239;0.5;0.00836;1.11661;1.1191;1.11921;1.1165;92.91853399999999;83.47807;77.03015000000001;1.112153;7272.0;0.001055000000000009;0.0009629846023269106;0.0001371401024618223;1;1;1;1.11669;1.11832;1.11995;1.11589;76.40586500000001;74.038437;70.658012;1.113014;2025.0;0.001230714285714256;0.001696895956923905;0.0007124709941866248;1;1;1
buy;2019.12.27 04:40:33;50;1.1111;0.6111;1.11946;0.5;0.00836;1.11127;1.11152;1.11161;1.11121;90.01038;76.340633;69.779465;1.110185;439.0;0.0003164285714285626;0.000323931654750087;0.0001353612735919162;1;1;1;1.11091;1.11166;1.11174;1.11081;93.100354;80.30669899999999;73.203385;1.110364;360.0;0.0003328571428571307;0.0004677493255016429;0.0002715330200588289;1;1;1
buy;2019.12.27 15:41:26;50;1.11496;0.61496;1.12332;0.5;0.00836;1.11541;1.11567;1.11592;1.11536;77.04218;74.424324;73.41768;1.114168;520.0;0.0005514285714285794;0.00075082170080365;0.0007406393602106276;1;1;1;1.11527;1.11533;1.11592;1.11508;63.498353;67.411315;68.501232;1.114503;451.0;0.0005278571428571392;0.0006965372707388173;0.0007369358363278725;1;1;0
buy;2019.12.30 18:46:15;50;1.12143;0.62143;1.12979;0.5;0.00836;1.12178;1.12161;1.12207;1.12156;72.577731;65.99126099999999;62.698239;1.119837;578.0;0.0007964285714285981;0.0005350623842796942;0.000274618181593838;1;1;1;1.12009;1.12161;1.12207;1.12007;55.241838;57.960788;57.481456;1.120028;489.0;0.0007100000000000155;0.0005189517615360462;0.0004107461673924765;1;1;1
